[gd_scene load_steps=5 format=2]

[ext_resource path="res://Events/Marathon/Resources/Obstacle.gd" type="Script" id=1]
[ext_resource path="res://Events/Marathon/Resources/SmallRock.glb" type="PackedScene" id=2]
[ext_resource path="res://Events/Marathon/Resources/Coin.tscn" type="PackedScene" id=3]

[sub_resource type="SphereShape" id=1]
radius = 0.742019

[node name="SmallRock" instance=ExtResource( 2 )]
input_ray_pickable = false
collision_mask = 2
script = ExtResource( 1 )
coins_for_attacking = 0

[node name="CollisionShape" type="CollisionShape" parent="." index="1"]
shape = SubResource( 1 )

[node name="Coin" parent="." index="2" instance=ExtResource( 3 )]
transform = Transform( 1, 0, 0, 0, 1, 0, 0, 0, 1, 0, 3.55906, 0 )

[connection signal="body_entered" from="." to="." method="_on_body_entered"]
