[gd_scene load_steps=2 format=2]

[ext_resource path="res://Events/Marathon/Resources/Coin.tscn" type="PackedScene" id=1]

[node name="CoinsX5" type="Spatial"]

[node name="Coin" parent="." instance=ExtResource( 1 )]
transform = Transform( 1, 0, 0, 0, 1, 0, 0, 0, 1, 0, 1, 0 )
animation_player_node = NodePath("../../01_Movement/Coin/AnimationPlayer")

[node name="Coin2" parent="." instance=ExtResource( 1 )]
transform = Transform( 1, 0, 0, 0, 1, 0, 0, 0, 1, 0, 1, -10 )
animation_player_node = NodePath("../../01_Movement/Coin2/AnimationPlayer")

[node name="Coin3" parent="." instance=ExtResource( 1 )]
transform = Transform( 1, 0, 0, 0, 1, 0, 0, 0, 1, 0, 1, -20 )
animation_player_node = NodePath("../../01_Movement/Coin3/AnimationPlayer")

[node name="Coin4" parent="." instance=ExtResource( 1 )]
transform = Transform( 1, 0, 0, 0, 1, 0, 0, 0, 1, 0, 1, -30 )
animation_player_node = NodePath("../../01_Movement/Coin3/AnimationPlayer")

[node name="Coin5" parent="." instance=ExtResource( 1 )]
transform = Transform( 1, 0, 0, 0, 1, 0, 0, 0, 1, 0, 1, -40 )
animation_player_node = NodePath("../../01_Movement/Coin3/AnimationPlayer")
