[gd_scene load_steps=4 format=2]

[ext_resource path="res://Events/Marathon/Resources/TallSign.glb" type="PackedScene" id=1]
[ext_resource path="res://Events/Marathon/Resources/Obstacle.gd" type="Script" id=2]

[sub_resource type="BoxShape" id=1]
extents = Vector3( 0.547803, 0.520433, 0.107119 )

[node name="TallSign" instance=ExtResource( 1 )]
collision_layer = 5
collision_mask = 6
script = ExtResource( 2 )
destroy_on_collision = true
destroy_on_attack = true
coins_for_attacking = 3

[node name="Sign2" parent="TallSign_Armature/Master/SignRope" index="0"]
transform = Transform( 1, 3.48629e-17, 7.10543e-15, -3.48629e-17, 1, 8.31196e-24, -7.10543e-15, -8.31196e-24, 1, -8.06818e-17, 0.452159, 1.86265e-09 )

[node name="CollisionShape" type="CollisionShape" parent="." index="2"]
transform = Transform( 1, 0, 0, 0, 1, 0, 0, 0, 1, 0, 4.15068, 0 )
shape = SubResource( 1 )

[connection signal="body_entered" from="." to="." method="_on_body_entered"]
