[gd_scene load_steps=29 format=2]

[ext_resource path="res://Characters/BaseCharacter/Resources/BaseCharacter.material" type="Material" id=1]
[ext_resource path="res://Characters/BaseCharacter/Resources/Finished.anim" type="Animation" id=2]
[ext_resource path="res://Characters/BaseCharacter/Resources/Idle.anim" type="Animation" id=3]
[ext_resource path="res://Characters/BaseCharacter/Resources/Ready.anim" type="Animation" id=4]
[ext_resource path="res://Events/Marathon/Resources/MarathonRunner.gd" type="Script" id=5]
[ext_resource path="res://Events/Marathon/Resources/Animations/Attack.anim" type="Animation" id=6]
[ext_resource path="res://Events/Marathon/Resources/Animations/Running.anim" type="Animation" id=7]
[ext_resource path="res://Events/Marathon/Resources/Animations/Hurt.anim" type="Animation" id=8]
[ext_resource path="res://Events/Marathon/Resources/Animations/Jump.anim" type="Animation" id=9]

[sub_resource type="ArrayMesh" id=1]
resource_name = "BaseCharacter"
surfaces/0 = {
"aabb": AABB( -0.624105, 0.00148332, -0.5, 1.24821, 1.5, 1.03976 ),
"array_data": PoolByteArray( 58, 205, 147, 62, 100, 234, 89, 62, 58, 205, 147, 190, 73, 183, 183, 0, 101, 69, 32, 127, 206, 58, 243, 58, 163, 17, 69, 62, 84, 95, 51, 62, 195, 18, 167, 190, 50, 174, 174, 0, 114, 49, 20, 127, 157, 58, 253, 58, 163, 17, 197, 61, 120, 63, 30, 62, 176, 162, 177, 190, 25, 168, 168, 0, 124, 24, 11, 127, 113, 58, 2, 59, 0, 0, 0, 0, 240, 122, 23, 62, 243, 4, 181, 190, 0, 167, 167, 0, 126, 0, 0, 127, 71, 58, 4, 59, 163, 17, 197, 189, 120, 63, 30, 62, 176, 162, 177, 190, 231, 168, 168, 0, 124, 232, 245, 127, 29, 58, 2, 59, 163, 17, 69, 190, 84, 95, 51, 62, 195, 18, 167, 190, 206, 174, 174, 0, 114, 206, 236, 127, 241, 57, 253, 58, 195, 18, 167, 62, 155, 57, 158, 62, 195, 18, 167, 190, 82, 206, 174, 0, 89, 80, 40, 127, 245, 58, 25, 59, 174, 195, 94, 62, 149, 96, 145, 62, 75, 205, 201, 190, 55, 201, 156, 0, 110, 55, 29, 127, 183, 58, 54, 59, 174, 195, 222, 61, 247, 85, 138, 62, 4, 6, 220, 190, 27, 197, 148, 0, 122, 27, 16, 127, 126, 58, 68, 59, 0, 0, 0, 0, 117, 20, 136, 62, 82, 197, 225, 190, 0, 196, 145, 0, 126, 0, 0, 127, 71, 58, 72, 59, 174, 195, 222, 189, 247, 85, 138, 62, 4, 6, 220, 190, 229, 197, 148, 0, 122, 229, 241, 127, 16, 58, 68, 59, 174, 195, 94, 190, 149, 96, 145, 62, 75, 205, 201, 190, 201, 201, 156, 0, 109, 200, 227, 127, 215, 57, 54, 59, 176, 162, 177, 62, 3, 126, 207, 62, 176, 162, 177, 190, 88, 231, 168, 0, 76, 87, 51, 127, 30, 59, 66, 59, 235, 216, 108, 62, 128, 17, 201, 62, 4, 6, 220, 190, 59, 229, 148, 0, 103, 60, 41, 127, 213, 58, 112, 59, 235, 216, 236, 61, 49, 140, 197, 62, 204, 234, 241, 190, 29, 227, 137, 0, 121, 30, 22, 127, 142, 58, 135, 59, 0, 0, 0, 0, 112, 107, 196, 62, 139, 201, 248, 190, 0, 226, 133, 0, 126, 255, 0, 127, 71, 58, 142, 59, 235, 216, 236, 189, 49, 140, 197, 62, 204, 234, 241, 190, 227, 227, 137, 0, 121, 225, 234, 127, 1, 58, 135, 59, 235, 216, 108, 190, 128, 17, 201, 62, 4, 6, 220, 190, 197, 229, 148, 0, 103, 195, 215, 127, 186, 57, 112, 59, 243, 4, 181, 62, 54, 97, 0, 63, 243, 4, 181, 190, 89, 250, 167, 0, 89, 255, 89, 127, 19, 55, 207, 56, 243, 4, 181, 62, 54, 97, 0, 63, 243, 4, 181, 190, 89, 250, 167, 0, 63, 93, 57, 127, 75, 59, 111, 59, 243, 4, 181, 62, 155, 48, 128, 63, 243, 4, 181, 190, 89, 6, 167, 0, 88, 230, 86, 127, 219, 54, 41, 58, 239, 91, 113, 62, 54, 97, 0, 63, 82, 197, 225, 190, 60, 250, 145, 0, 111, 0, 60, 127, 63, 54, 207, 56, 239, 91, 113, 62, 54, 97, 0, 63, 82, 197, 225, 190, 60, 250, 145, 0, 96, 66, 48, 127, 248, 58, 176, 59, 239, 91, 113, 62, 155, 48, 128, 63, 82, 197, 225, 190, 60, 6, 145, 0, 111, 241, 59, 127, 29, 54, 25, 58, 239, 91, 241, 61, 54, 97, 0, 63, 139, 201, 248, 190, 30, 249, 133, 0, 123, 0, 30, 127, 137, 53, 207, 56, 239, 91, 241, 61, 54, 97, 0, 63, 139, 201, 248, 190, 30, 249, 133, 0, 118, 35, 27, 127, 162, 58, 213, 59, 239, 91, 241, 61, 155, 48, 128, 63, 139, 201, 248, 190, 30, 7, 133, 0, 123, 251, 29, 127, 128, 53, 18, 58, 0, 0, 0, 0, 54, 97, 0, 63, 0, 0, 0, 191, 0, 249, 130, 0, 126, 0, 0, 127, 221, 52, 207, 56, 0, 0, 0, 0, 54, 97, 0, 63, 0, 0, 0, 191, 0, 249, 130, 0, 126, 255, 0, 127, 71, 58, 227, 59, 0, 0, 0, 0, 155, 48, 128, 63, 0, 0, 0, 191, 0, 7, 130, 0, 126, 5, 0, 127, 237, 52, 18, 58, 239, 91, 241, 189, 54, 97, 0, 63, 139, 201, 248, 190, 226, 249, 133, 0, 123, 1, 226, 127, 48, 52, 207, 56, 239, 91, 241, 189, 54, 97, 0, 63, 139, 201, 248, 190, 226, 249, 133, 0, 119, 222, 229, 127, 237, 57, 213, 59, 239, 91, 241, 189, 155, 48, 128, 63, 139, 201, 248, 190, 226, 7, 133, 0, 122, 15, 227, 127, 92, 52, 24, 58, 239, 91, 113, 190, 54, 97, 0, 63, 82, 197, 225, 190, 196, 250, 145, 0, 111, 2, 196, 127, 235, 50, 207, 56, 239, 91, 113, 190, 54, 97, 0, 63, 82, 197, 225, 190, 196, 250, 145, 0, 98, 193, 207, 127, 151, 57, 176, 59, 239, 91, 113, 190, 155, 48, 128, 63, 82, 197, 225, 190, 196, 6, 145, 0, 109, 26, 198, 127, 126, 51, 36, 58, 176, 162, 177, 62, 181, 129, 140, 63, 176, 162, 177, 190, 88, 25, 168, 0, 91, 221, 81, 127, 188, 54, 104, 58, 235, 216, 108, 62, 214, 28, 142, 63, 4, 6, 220, 190, 59, 27, 148, 0, 112, 236, 55, 127, 11, 54, 92, 58, 235, 216, 236, 61, 42, 254, 142, 63, 204, 234, 241, 190, 29, 29, 137, 0, 123, 249, 28, 127, 122, 53, 88, 58, 0, 0, 0, 0, 90, 70, 143, 63, 139, 201, 248, 190, 0, 30, 133, 0, 126, 5, 1, 127, 243, 52, 89, 58, 235, 216, 236, 189, 42, 254, 142, 63, 204, 234, 241, 190, 227, 29, 137, 0, 123, 17, 230, 127, 109, 52, 93, 58, 235, 216, 108, 190, 214, 28, 142, 63, 4, 6, 220, 190, 197, 27, 148, 0, 111, 30, 204, 127, 183, 51, 103, 58, 195, 18, 167, 62, 207, 210, 152, 63, 195, 18, 167, 190, 82, 50, 174, 0, 96, 215, 71, 127, 149, 54, 165, 58, 174, 195, 94, 62, 17, 9, 156, 63, 75, 205, 201, 190, 55, 55, 156, 0, 114, 233, 49, 127, 247, 53, 159, 58, 174, 195, 222, 61, 184, 203, 157, 63, 4, 6, 220, 190, 27, 59, 148, 0, 123, 248, 26, 127, 115, 53, 158, 58, 0, 0, 0, 0, 25, 92, 158, 63, 82, 197, 225, 190, 0, 60, 145, 0, 126, 4, 2, 127, 249, 52, 160, 58, 174, 195, 222, 189, 184, 203, 157, 63, 4, 6, 220, 190, 229, 59, 148, 0, 123, 18, 235, 127, 126, 52, 163, 58, 174, 195, 94, 190, 17, 9, 156, 63, 75, 205, 201, 190, 201, 55, 156, 0, 114, 33, 212, 127, 246, 51, 170, 58, 58, 205, 147, 190, 100, 234, 89, 62, 58, 205, 147, 190, 183, 183, 183, 0, 100, 183, 230, 127, 192, 57, 243, 58, 195, 18, 167, 190, 84, 95, 51, 62, 163, 17, 69, 190, 174, 174, 206, 0, 94, 173, 239, 127, 181, 57, 193, 58, 176, 162, 177, 190, 120, 63, 30, 62, 163, 17, 197, 189, 168, 168, 231, 0, 90, 168, 249, 127, 176, 57, 149, 58, 243, 4, 181, 190, 240, 122, 23, 62, 0, 0, 0, 128, 167, 167, 0, 0, 89, 167, 3, 127, 175, 57, 107, 58, 176, 162, 177, 190, 120, 63, 30, 62, 163, 17, 197, 61, 168, 168, 25, 0, 91, 169, 14, 127, 176, 57, 65, 58, 195, 18, 167, 190, 84, 95, 51, 62, 163, 17, 69, 62, 174, 174, 50, 0, 95, 176, 24, 127, 181, 57, 21, 58, 195, 18, 167, 190, 155, 57, 158, 62, 195, 18, 167, 190, 174, 206, 174, 0, 88, 174, 218, 127, 153, 57, 25, 59, 75, 205, 201, 190, 149, 96, 145, 62, 174, 195, 94, 190, 156, 201, 201, 0, 71, 156, 226, 127, 125, 57, 220, 58, 4, 6, 220, 190, 247, 85, 138, 62, 174, 195, 222, 189, 148, 197, 229, 0, 63, 148, 241, 127, 110, 57, 162, 58, 82, 197, 225, 190, 117, 20, 136, 62, 0, 0, 0, 128, 145, 196, 0, 0, 60, 145, 1, 127, 107, 57, 107, 58, 4, 6, 220, 190, 247, 85, 138, 62, 174, 195, 222, 61, 148, 197, 27, 0, 63, 148, 18, 127, 110, 57, 52, 58, 75, 205, 201, 190, 149, 96, 145, 62, 174, 195, 94, 62, 156, 201, 55, 0, 72, 157, 31, 127, 125, 57, 251, 57, 176, 162, 177, 190, 3, 126, 207, 62, 176, 162, 177, 190, 168, 231, 168, 0, 76, 169, 206, 127, 113, 57, 66, 59, 4, 6, 220, 190, 128, 17, 201, 62, 235, 216, 108, 190, 148, 229, 197, 0, 50, 148, 214, 127, 67, 57, 249, 58, 204, 234, 241, 190, 49, 140, 197, 62, 235, 216, 236, 189, 137, 227, 227, 0, 35, 137, 233, 127, 43, 57, 178, 58, 139, 201, 248, 190, 112, 107, 196, 62, 0, 0, 0, 128, 133, 226, 0, 0, 30, 133, 1, 127, 36, 57, 107, 58, 204, 234, 241, 190, 49, 140, 197, 62, 235, 216, 236, 61, 137, 227, 29, 0, 35, 137, 25, 127, 43, 57, 37, 58, 4, 6, 220, 190, 128, 17, 201, 62, 235, 216, 108, 62, 148, 229, 59, 0, 51, 149, 43, 127, 67, 57, 222, 57, 243, 4, 181, 190, 54, 97, 0, 63, 243, 4, 181, 190, 167, 250, 167, 0, 89, 3, 167, 127, 50, 49, 207, 56, 243, 4, 181, 190, 54, 97, 0, 63, 243, 4, 181, 190, 167, 250, 167, 0, 67, 167, 196, 127, 68, 57, 111, 59, 243, 4, 181, 190, 155, 48, 128, 63, 243, 4, 181, 190, 167, 6, 167, 0, 87, 37, 172, 127, 6, 50, 60, 58, 82, 197, 225, 190, 54, 97, 0, 63, 239, 91, 113, 190, 145, 250, 196, 0, 60, 3, 145, 127, 222, 46, 207, 56, 82, 197, 225, 190, 54, 97, 0, 63, 239, 91, 113, 190, 145, 250, 196, 0, 36, 147, 202, 127, 3, 57, 28, 59, 82, 197, 225, 190, 155, 48, 128, 63, 239, 91, 113, 190, 145, 6, 196, 0, 58, 45, 153, 127, 115, 48, 95, 58, 139, 201, 248, 190, 54, 97, 0, 63, 239, 91, 241, 189, 133, 249, 226, 0, 30, 253, 133, 127, 143, 43, 207, 56, 139, 201, 248, 190, 54, 97, 0, 63, 239, 91, 241, 189, 133, 249, 226, 0, 15, 135, 222, 127, 222, 56, 198, 58, 201, 210, 28, 191, 236, 243, 128, 63, 103, 194, 112, 190, 136, 220, 242, 0, 0, 49, 139, 127, 51, 43, 170, 58, 201, 210, 28, 191, 236, 243, 128, 63, 103, 194, 112, 190, 140, 47, 242, 0, 44, 84, 173, 127, 51, 43, 170, 58, 201, 210, 28, 191, 236, 243, 128, 63, 103, 194, 112, 190, 76, 252, 156, 0, 98, 31, 73, 127, 51, 43, 170, 58, 0, 0, 0, 191, 54, 97, 0, 63, 0, 0, 0, 128, 130, 249, 0, 0, 0, 0, 130, 127, 182, 37, 207, 56, 0, 0, 0, 191, 54, 97, 0, 63, 0, 0, 0, 128, 130, 249, 0, 0, 0, 5, 126, 127, 254, 43, 165, 56, 0, 0, 0, 191, 54, 97, 0, 63, 0, 0, 0, 128, 130, 249, 0, 0, 7, 130, 250, 127, 208, 56, 107, 58, 84, 197, 31, 191, 20, 242, 128, 63, 172, 30, 18, 190, 136, 220, 242, 0, 11, 13, 131, 127, 74, 40, 190, 58, 84, 197, 31, 191, 20, 242, 128, 63, 172, 30, 18, 190, 140, 47, 242, 0, 33, 48, 144, 127, 74, 40, 190, 58, 84, 197, 31, 191, 20, 242, 128, 63, 172, 30, 18, 190, 166, 5, 89, 0, 86, 35, 85, 127, 48, 23, 42, 52, 139, 201, 248, 190, 54, 97, 0, 63, 239, 91, 241, 61, 133, 249, 30, 0, 30, 3, 123, 127, 56, 48, 165, 56, 139, 201, 248, 190, 54, 97, 0, 63, 239, 91, 241, 61, 133, 249, 30, 0, 13, 132, 23, 127, 222, 56, 17, 58, 139, 201, 248, 190, 155, 48, 128, 63, 239, 91, 241, 61, 133, 7, 30, 0, 30, 39, 116, 127, 224, 49, 40, 53, 82, 197, 225, 190, 54, 97, 0, 63, 239, 91, 113, 62, 145, 250, 60, 0, 60, 2, 111, 127, 146, 50, 165, 56, 82, 197, 225, 190, 54, 97, 0, 63, 239, 91, 113, 62, 145, 250, 60, 0, 32, 143, 47, 127, 3, 57, 187, 57, 82, 197, 225, 190, 155, 48, 128, 63, 239, 91, 113, 62, 145, 6, 60, 0, 60, 33, 106, 127, 250, 51, 122, 53, 176, 162, 177, 190, 181, 129, 140, 63, 176, 162, 177, 190, 168, 25, 168, 0, 90, 45, 180, 127, 87, 50, 122, 58, 4, 6, 220, 190, 214, 28, 142, 63, 235, 216, 108, 190, 148, 27, 197, 0, 64, 61, 166, 127, 252, 48, 173, 58, 18, 111, 19, 191, 197, 236, 142, 63, 139, 48, 51, 190, 140, 47, 242, 0, 48, 116, 240, 127, 68, 44, 210, 58, 18, 111, 19, 191, 197, 236, 142, 63, 139, 48, 51, 190, 0, 126, 254, 0, 126, 0, 250, 127, 68, 44, 210, 58, 18, 111, 19, 191, 197, 236, 142, 63, 139, 48, 51, 190, 77, 10, 156, 0, 82, 178, 55, 127, 68, 44, 210, 58, 222, 29, 22, 191, 44, 37, 143, 63, 222, 31, 173, 189, 140, 47, 242, 0, 47, 99, 193, 127, 185, 43, 3, 59, 222, 29, 22, 191, 44, 37, 143, 63, 222, 31, 173, 189, 166, 254, 89, 0, 84, 37, 86, 127, 34, 44, 142, 50, 222, 29, 22, 191, 44, 37, 143, 63, 222, 31, 173, 189, 0, 126, 254, 0, 118, 255, 210, 127, 185, 43, 3, 59, 204, 234, 241, 190, 42, 254, 142, 63, 235, 216, 236, 61, 137, 29, 29, 0, 39, 50, 109, 127, 162, 50, 46, 52, 4, 6, 220, 190, 214, 28, 142, 63, 235, 216, 108, 62, 148, 27, 59, 0, 65, 40, 101, 127, 66, 52, 160, 52, 195, 18, 167, 190, 207, 210, 152, 63, 195, 18, 167, 190, 174, 50, 174, 0, 96, 49, 191, 127, 187, 50, 182, 58, 75, 205, 201, 190, 17, 9, 156, 63, 174, 195, 94, 190, 156, 55, 201, 0, 78, 66, 182, 127, 186, 49, 239, 58, 4, 6, 220, 190, 184, 203, 157, 63, 174, 195, 222, 189, 148, 59, 229, 0, 63, 82, 184, 127, 230, 48, 46, 59, 82, 197, 225, 190, 25, 92, 158, 63, 0, 0, 0, 128, 145, 60, 0, 0, 52, 97, 195, 127, 61, 48, 119, 59, 82, 197, 225, 190, 25, 92, 158, 63, 0, 0, 0, 128, 145, 60, 0, 0, 38, 70, 98, 127, 16, 50, 50, 49, 4, 6, 220, 190, 184, 203, 157, 63, 174, 195, 222, 61, 148, 59, 27, 0, 56, 58, 97, 127, 178, 51, 118, 50, 75, 205, 201, 190, 17, 9, 156, 63, 174, 195, 94, 62, 156, 55, 55, 0, 75, 46, 90, 127, 161, 52, 149, 51, 58, 205, 147, 190, 100, 234, 89, 62, 58, 205, 147, 62, 183, 183, 73, 0, 101, 187, 32, 127, 192, 57, 228, 57, 163, 17, 69, 190, 84, 95, 51, 62, 195, 18, 167, 62, 206, 174, 82, 0, 114, 207, 20, 127, 241, 57, 218, 57, 163, 17, 197, 189, 120, 63, 30, 62, 176, 162, 177, 62, 231, 168, 88, 0, 124, 232, 11, 127, 29, 58, 212, 57, 0, 0, 0, 0, 240, 122, 23, 62, 243, 4, 181, 62, 0, 167, 89, 0, 126, 0, 0, 127, 71, 58, 211, 57, 163, 17, 197, 61, 120, 63, 30, 62, 176, 162, 177, 62, 25, 168, 88, 0, 124, 24, 245, 127, 113, 58, 212, 57, 163, 17, 69, 62, 84, 95, 51, 62, 195, 18, 167, 62, 50, 174, 82, 0, 114, 50, 236, 127, 157, 58, 218, 57, 195, 18, 167, 190, 155, 57, 158, 62, 195, 18, 167, 62, 174, 206, 82, 0, 89, 176, 40, 127, 153, 57, 189, 57, 174, 195, 94, 190, 149, 96, 145, 62, 75, 205, 201, 62, 201, 201, 100, 0, 110, 201, 29, 127, 215, 57, 161, 57, 174, 195, 222, 189, 247, 85, 138, 62, 4, 6, 220, 62, 229, 197, 108, 0, 122, 229, 16, 127, 16, 58, 147, 57, 0, 0, 0, 0, 117, 20, 136, 62, 82, 197, 225, 62, 0, 196, 111, 0, 126, 0, 0, 127, 71, 58, 143, 57, 174, 195, 222, 61, 247, 85, 138, 62, 4, 6, 220, 62, 27, 197, 108, 0, 122, 27, 241, 127, 126, 58, 147, 57, 174, 195, 94, 62, 149, 96, 145, 62, 75, 205, 201, 62, 55, 201, 100, 0, 109, 56, 227, 127, 183, 58, 161, 57, 176, 162, 177, 190, 3, 126, 207, 62, 176, 162, 177, 62, 168, 231, 88, 0, 76, 169, 51, 127, 112, 57, 149, 57, 235, 216, 108, 190, 128, 17, 201, 62, 4, 6, 220, 62, 197, 229, 108, 0, 103, 196, 41, 127, 186, 57, 103, 57, 235, 216, 236, 189, 49, 140, 197, 62, 204, 234, 241, 62, 227, 227, 119, 0, 121, 226, 22, 127, 1, 58, 79, 57, 0, 0, 0, 0, 112, 107, 196, 62, 139, 201, 248, 62, 0, 226, 123, 0, 126, 1, 0, 127, 71, 58, 72, 57, 235, 216, 236, 61, 49, 140, 197, 62, 204, 234, 241, 62, 29, 227, 119, 0, 121, 31, 234, 127, 141, 58, 79, 57, 235, 216, 108, 62, 128, 17, 201, 62, 4, 6, 220, 62, 59, 229, 108, 0, 103, 61, 215, 127, 212, 58, 103, 57, 243, 4, 181, 190, 54, 97, 0, 63, 243, 4, 181, 62, 167, 250, 89, 0, 89, 3, 89, 127, 168, 52, 165, 56, 243, 4, 181, 190, 54, 97, 0, 63, 243, 4, 181, 62, 167, 250, 89, 0, 63, 163, 57, 127, 68, 57, 104, 57, 19, 15, 181, 190, 82, 109, 132, 63, 120, 102, 206, 62, 130, 8, 251, 0, 252, 21, 124, 127, 130, 53, 135, 53, 19, 15, 181, 190, 82, 109, 132, 63, 120, 102, 206, 62, 182, 12, 101, 0, 102, 22, 72, 127, 130, 53, 135, 53, 19, 15, 181, 190, 82, 109, 132, 63, 120, 102, 206, 62, 208, 159, 65, 0, 87, 17, 90, 127, 130, 53, 135, 53, 239, 91, 113, 190, 54, 97, 0, 63, 82, 197, 225, 62, 196, 250, 111, 0, 111, 0, 60, 127, 9, 54, 165, 56, 239, 91, 113, 190, 54, 97, 0, 63, 82, 197, 225, 62, 196, 250, 111, 0, 96, 190, 48, 127, 150, 57, 39, 57, 13, 135, 130, 190, 240, 119, 132, 63, 152, 217, 243, 62, 196, 13, 111, 0, 111, 17, 58, 127, 64, 54, 169, 53, 13, 135, 130, 190, 240, 119, 132, 63, 152, 217, 243, 62, 218, 159, 71, 0, 102, 13, 74, 127, 64, 54, 169, 53, 239, 91, 241, 189, 54, 97, 0, 63, 139, 201, 248, 62, 226, 249, 123, 0, 123, 0, 30, 127, 15, 55, 165, 56, 239, 91, 241, 189, 54, 97, 0, 63, 139, 201, 248, 62, 226, 249, 123, 0, 118, 221, 27, 127, 237, 57, 2, 57, 119, 103, 2, 190, 232, 129, 132, 63, 217, 77, 6, 63, 227, 14, 122, 0, 123, 7, 29, 127, 22, 55, 188, 53, 119, 103, 2, 190, 232, 129, 132, 63, 217, 77, 6, 63, 237, 159, 79, 0, 122, 3, 34, 127, 22, 55, 188, 53, 0, 0, 0, 0, 54, 97, 0, 63, 0, 0, 0, 63, 0, 249, 126, 0, 126, 0, 0, 127, 1, 56, 165, 56, 0, 0, 0, 0, 54, 97, 0, 63, 0, 0, 0, 63, 0, 249, 126, 0, 126, 1, 0, 127, 71, 58, 244, 56, 0, 0, 0, 0, 250, 132, 132, 63, 142, 45, 10, 63, 0, 160, 82, 0, 126, 254, 253, 127, 224, 55, 196, 53, 0, 0, 0, 0, 250, 132, 132, 63, 142, 45, 10, 63, 0, 15, 126, 0, 126, 255, 0, 127, 224, 55, 196, 53, 239, 91, 241, 61, 54, 97, 0, 63, 139, 201, 248, 62, 30, 249, 123, 0, 123, 254, 226, 127, 141, 56, 165, 56, 239, 91, 241, 61, 54, 97, 0, 63, 139, 201, 248, 62, 30, 249, 123, 0, 119, 34, 229, 127, 161, 58, 2, 57, 119, 103, 2, 62, 232, 129, 132, 63, 217, 77, 6, 63, 19, 159, 79, 0, 119, 247, 216, 127, 84, 56, 180, 53, 119, 103, 2, 62, 232, 129, 132, 63, 217, 77, 6, 63, 29, 14, 122, 0, 122, 241, 228, 127, 84, 56, 180, 53, 239, 91, 113, 62, 54, 97, 0, 63, 82, 197, 225, 62, 60, 250, 111, 0, 111, 253, 196, 127, 17, 57, 165, 56, 239, 91, 113, 62, 54, 97, 0, 63, 82, 197, 225, 62, 60, 250, 111, 0, 98, 63, 207, 127, 248, 58, 39, 57, 13, 135, 130, 62, 240, 119, 132, 63, 153, 217, 243, 62, 38, 159, 71, 0, 102, 243, 182, 127, 190, 56, 144, 53, 13, 135, 130, 62, 240, 119, 132, 63, 153, 217, 243, 62, 60, 13, 111, 0, 110, 231, 200, 127, 190, 56, 144, 53, 156, 175, 178, 190, 160, 137, 141, 63, 194, 253, 203, 62, 131, 16, 249, 0, 0, 54, 114, 127, 156, 53, 26, 53, 156, 175, 178, 190, 160, 137, 141, 63, 194, 253, 203, 62, 183, 24, 100, 0, 103, 22, 70, 127, 156, 53, 26, 53, 23, 228, 128, 190, 37, 83, 143, 63, 190, 60, 239, 62, 197, 27, 108, 0, 112, 17, 56, 127, 82, 54, 38, 53, 36, 214, 0, 190, 96, 75, 144, 63, 208, 136, 3, 63, 227, 29, 119, 0, 123, 6, 28, 127, 29, 55, 46, 53, 0, 0, 0, 0, 170, 154, 144, 63, 76, 69, 7, 63, 0, 30, 123, 0, 126, 254, 0, 127, 220, 55, 46, 53, 36, 214, 0, 62, 96, 75, 144, 63, 208, 136, 3, 63, 29, 29, 119, 0, 123, 243, 229, 127, 76, 56, 37, 53, 23, 228, 128, 62, 37, 83, 143, 63, 190, 60, 239, 62, 59, 27, 108, 0, 111, 232, 202, 127, 178, 56, 17, 53, 128, 66, 170, 190, 248, 159, 151, 63, 206, 113, 195, 62, 132, 24, 247, 0, 10, 86, 92, 127, 188, 53, 161, 52, 128, 66, 170, 190, 248, 159, 151, 63, 206, 113, 195, 62, 185, 38, 97, 0, 104, 21, 68, 127, 188, 53, 161, 52, 128, 66, 170, 190, 248, 159, 151, 63, 206, 113, 195, 62, 219, 120, 16, 0, 102, 22, 71, 127, 188, 53, 161, 52, 174, 195, 94, 190, 17, 9, 156, 63, 75, 205, 201, 62, 204, 68, 92, 0, 114, 15, 53, 127, 100, 54, 70, 52, 174, 195, 94, 190, 17, 9, 156, 63, 75, 205, 201, 62, 226, 121, 20, 0, 112, 19, 54, 127, 100, 54, 70, 52, 174, 195, 222, 189, 184, 203, 157, 63, 4, 6, 220, 62, 230, 73, 100, 0, 124, 9, 25, 127, 36, 55, 69, 52, 174, 195, 222, 189, 184, 203, 157, 63, 4, 6, 220, 62, 241, 123, 26, 0, 123, 9, 28, 127, 36, 55, 69, 52, 0, 0, 0, 0, 25, 92, 158, 63, 82, 197, 225, 62, 0, 75, 102, 0, 126, 254, 2, 127, 213, 55, 67, 52, 0, 0, 0, 0, 25, 92, 158, 63, 82, 197, 225, 62, 0, 123, 28, 0, 126, 0, 4, 127, 213, 55, 67, 52, 174, 195, 222, 61, 184, 203, 157, 63, 4, 6, 220, 62, 15, 123, 26, 0, 124, 245, 235, 127, 67, 56, 60, 52, 174, 195, 222, 61, 184, 203, 157, 63, 4, 6, 220, 62, 26, 73, 100, 0, 124, 242, 235, 127, 67, 56, 60, 52, 174, 195, 94, 62, 17, 9, 156, 63, 75, 205, 201, 62, 30, 121, 20, 0, 114, 236, 205, 127, 163, 56, 50, 52, 174, 195, 94, 62, 17, 9, 156, 63, 75, 205, 201, 62, 52, 68, 92, 0, 115, 233, 208, 127, 163, 56, 50, 52, 58, 205, 147, 62, 100, 234, 89, 62, 58, 205, 147, 62, 73, 183, 73, 0, 100, 73, 230, 127, 206, 58, 228, 57, 195, 18, 167, 62, 84, 95, 51, 62, 163, 17, 69, 62, 82, 174, 50, 0, 94, 83, 239, 127, 217, 58, 21, 58, 176, 162, 177, 62, 120, 63, 30, 62, 163, 17, 197, 61, 88, 168, 25, 0, 90, 88, 249, 127, 222, 58, 65, 58, 243, 4, 181, 62, 240, 122, 23, 62, 0, 0, 0, 128, 89, 167, 0, 0, 89, 89, 3, 127, 223, 58, 107, 58, 176, 162, 177, 62, 120, 63, 30, 62, 163, 17, 197, 189, 88, 168, 231, 0, 91, 87, 14, 127, 222, 58, 149, 58, 195, 18, 167, 62, 84, 95, 51, 62, 163, 17, 69, 190, 82, 174, 206, 0, 95, 80, 24, 127, 217, 58, 193, 58, 195, 18, 167, 62, 155, 57, 158, 62, 195, 18, 167, 62, 82, 206, 82, 0, 88, 82, 218, 127, 245, 58, 189, 57, 75, 205, 201, 62, 149, 96, 145, 62, 174, 195, 94, 62, 100, 201, 55, 0, 71, 100, 226, 127, 18, 59, 251, 57, 4, 6, 220, 62, 247, 85, 138, 62, 174, 195, 222, 61, 108, 197, 27, 0, 63, 108, 241, 127, 32, 59, 52, 58, 82, 197, 225, 62, 117, 20, 136, 62, 0, 0, 0, 128, 111, 196, 0, 0, 60, 111, 1, 127, 36, 59, 107, 58, 4, 6, 220, 62, 247, 85, 138, 62, 174, 195, 222, 189, 108, 197, 229, 0, 63, 108, 18, 127, 32, 59, 162, 58, 75, 205, 201, 62, 149, 96, 145, 62, 174, 195, 94, 190, 100, 201, 201, 0, 72, 99, 31, 127, 18, 59, 219, 58, 176, 162, 177, 62, 3, 126, 207, 62, 176, 162, 177, 62, 88, 231, 88, 0, 76, 87, 206, 127, 30, 59, 149, 57, 4, 6, 220, 62, 128, 17, 201, 62, 235, 216, 108, 62, 108, 229, 59, 0, 50, 108, 214, 127, 75, 59, 222, 57, 204, 234, 241, 62, 49, 140, 197, 62, 235, 216, 236, 61, 119, 227, 29, 0, 35, 119, 233, 127, 99, 59, 37, 58, 139, 201, 248, 62, 112, 107, 196, 62, 0, 0, 0, 128, 123, 226, 0, 0, 30, 123, 1, 127, 106, 59, 107, 58, 204, 234, 241, 62, 49, 140, 197, 62, 235, 216, 236, 189, 119, 227, 227, 0, 35, 119, 25, 127, 99, 59, 178, 58, 4, 6, 220, 62, 128, 17, 201, 62, 235, 216, 108, 190, 108, 229, 197, 0, 51, 107, 43, 127, 75, 59, 248, 58, 243, 4, 181, 62, 54, 97, 0, 63, 243, 4, 181, 62, 89, 250, 89, 0, 89, 252, 167, 127, 173, 57, 165, 56, 243, 4, 181, 62, 54, 97, 0, 63, 243, 4, 181, 62, 89, 250, 89, 0, 67, 89, 196, 127, 75, 59, 104, 57, 19, 15, 181, 62, 83, 109, 132, 63, 120, 102, 206, 62, 48, 159, 65, 0, 77, 230, 160, 127, 28, 57, 103, 53, 19, 15, 181, 62, 83, 109, 132, 63, 120, 102, 206, 62, 74, 12, 101, 0, 101, 229, 185, 127, 28, 57, 103, 53, 19, 15, 181, 62, 83, 109, 132, 63, 120, 102, 206, 62, 126, 8, 251, 0, 250, 7, 130, 127, 28, 57, 103, 53, 82, 197, 225, 62, 54, 97, 0, 63, 239, 91, 113, 62, 111, 250, 60, 0, 60, 253, 145, 127, 94, 58, 165, 56, 82, 197, 225, 62, 54, 97, 0, 63, 239, 91, 113, 62, 111, 250, 60, 0, 36, 109, 202, 127, 140, 59, 187, 57, 82, 197, 225, 62, 155, 48, 128, 63, 239, 91, 113, 62, 111, 6, 60, 0, 59, 214, 152, 127, 224, 57, 70, 53, 139, 201, 248, 62, 54, 97, 0, 63, 239, 91, 241, 61, 123, 249, 30, 0, 30, 253, 133, 127, 246, 58, 165, 56, 139, 201, 248, 62, 54, 97, 0, 63, 239, 91, 241, 61, 123, 249, 30, 0, 15, 121, 222, 127, 177, 59, 17, 58, 139, 201, 248, 62, 155, 48, 128, 63, 239, 91, 241, 61, 123, 7, 30, 0, 30, 208, 143, 127, 99, 58, 225, 52, 0, 0, 0, 63, 54, 97, 0, 63, 0, 0, 0, 128, 126, 249, 0, 0, 0, 10, 126, 127, 156, 56, 207, 56, 0, 0, 0, 63, 54, 97, 0, 63, 0, 0, 0, 128, 126, 249, 0, 0, 0, 0, 130, 127, 134, 59, 165, 56, 0, 0, 0, 63, 54, 97, 0, 63, 0, 0, 0, 128, 126, 249, 0, 0, 7, 126, 250, 127, 191, 59, 107, 58, 84, 197, 31, 63, 20, 242, 128, 63, 172, 30, 18, 190, 90, 5, 89, 0, 84, 211, 174, 127, 200, 59, 95, 51, 84, 197, 31, 63, 20, 242, 128, 63, 172, 30, 18, 190, 116, 47, 242, 0, 41, 183, 94, 127, 171, 56, 142, 58, 84, 197, 31, 63, 20, 242, 128, 63, 172, 30, 18, 190, 120, 220, 242, 0, 8, 234, 124, 127, 171, 56, 142, 58, 139, 201, 248, 62, 54, 97, 0, 63, 239, 91, 241, 189, 123, 249, 226, 0, 30, 253, 123, 127, 65, 56, 207, 56, 139, 201, 248, 62, 54, 97, 0, 63, 239, 91, 241, 189, 123, 249, 226, 0, 13, 124, 23, 127, 177, 59, 198, 58, 201, 210, 28, 63, 236, 243, 128, 63, 103, 194, 112, 190, 180, 252, 156, 0, 88, 193, 191, 127, 125, 56, 127, 58, 201, 210, 28, 63, 236, 243, 128, 63, 103, 194, 112, 190, 116, 47, 242, 0, 37, 197, 105, 127, 125, 56, 127, 58, 201, 210, 28, 63, 236, 243, 128, 63, 103, 194, 112, 190, 120, 220, 242, 0, 24, 31, 120, 127, 125, 56, 127, 58, 82, 197, 225, 62, 54, 97, 0, 63, 239, 91, 113, 190, 111, 250, 196, 0, 60, 254, 111, 127, 233, 55, 207, 56, 82, 197, 225, 62, 54, 97, 0, 63, 239, 91, 113, 190, 111, 250, 196, 0, 32, 113, 47, 127, 140, 59, 28, 59, 82, 197, 225, 62, 155, 48, 128, 63, 239, 91, 113, 190, 111, 6, 196, 0, 59, 220, 105, 127, 167, 55, 68, 58, 156, 175, 178, 62, 160, 137, 141, 63, 194, 253, 203, 62, 73, 24, 100, 0, 102, 228, 188, 127, 12, 57, 252, 52, 156, 175, 178, 62, 160, 137, 141, 63, 194, 253, 203, 62, 125, 16, 249, 0, 255, 211, 138, 127, 12, 57, 252, 52, 4, 6, 220, 62, 214, 28, 142, 63, 235, 216, 108, 62, 108, 27, 59, 0, 65, 209, 159, 127, 182, 57, 111, 52, 204, 234, 241, 62, 42, 254, 142, 63, 235, 216, 236, 61, 119, 29, 29, 0, 40, 198, 151, 127, 42, 58, 223, 51, 222, 29, 22, 63, 44, 37, 143, 63, 222, 31, 173, 189, 0, 126, 254, 0, 126, 0, 6, 127, 126, 56, 213, 58, 222, 29, 22, 63, 44, 37, 143, 63, 222, 31, 173, 189, 90, 254, 89, 0, 82, 210, 172, 127, 65, 59, 202, 49, 222, 29, 22, 63, 44, 37, 143, 63, 222, 31, 173, 189, 116, 47, 242, 0, 46, 163, 72, 127, 126, 56, 213, 58, 18, 111, 19, 63, 197, 236, 142, 63, 139, 48, 51, 190, 179, 10, 156, 0, 99, 246, 179, 127, 108, 56, 167, 58, 18, 111, 19, 63, 197, 236, 142, 63, 139, 48, 51, 190, 0, 126, 254, 0, 126, 0, 1, 127, 108, 56, 167, 58, 18, 111, 19, 63, 197, 236, 142, 63, 139, 48, 51, 190, 116, 47, 242, 0, 44, 174, 85, 127, 108, 56, 167, 58, 4, 6, 220, 62, 214, 28, 142, 63, 235, 216, 108, 190, 108, 27, 197, 0, 65, 207, 97, 127, 112, 55, 147, 58, 128, 66, 170, 62, 248, 159, 151, 63, 206, 113, 195, 62, 37, 120, 16, 0, 107, 231, 194, 127, 249, 56, 133, 52, 128, 66, 170, 62, 248, 159, 151, 63, 206, 113, 195, 62, 71, 38, 97, 0, 104, 229, 190, 127, 249, 56, 133, 52, 128, 66, 170, 62, 248, 159, 151, 63, 206, 113, 195, 62, 124, 24, 247, 0, 6, 185, 152, 127, 249, 56, 133, 52, 75, 205, 201, 62, 17, 9, 156, 63, 174, 195, 94, 62, 100, 55, 55, 0, 76, 204, 170, 127, 128, 57, 64, 51, 4, 6, 220, 62, 184, 203, 157, 63, 174, 195, 222, 61, 108, 59, 27, 0, 58, 192, 164, 127, 224, 57, 13, 50, 82, 197, 225, 62, 25, 92, 158, 63, 0, 0, 0, 128, 111, 60, 0, 0, 50, 164, 71, 127, 242, 55, 85, 59, 82, 197, 225, 62, 25, 92, 158, 63, 0, 0, 0, 128, 111, 60, 0, 0, 39, 185, 159, 127, 66, 58, 182, 48, 4, 6, 220, 62, 184, 203, 157, 63, 174, 195, 222, 189, 108, 59, 229, 0, 62, 178, 78, 127, 145, 55, 17, 59, 75, 205, 201, 62, 17, 9, 156, 63, 174, 195, 94, 190, 100, 55, 201, 0, 77, 198, 82, 127, 30, 55, 216, 58, 174, 195, 94, 62, 136, 212, 219, 61, 174, 195, 94, 62, 55, 156, 55, 0, 113, 55, 243, 127, 161, 58, 17, 58, 174, 195, 222, 61, 160, 241, 146, 61, 235, 216, 108, 62, 27, 148, 59, 0, 123, 27, 250, 127, 114, 58, 15, 58, 0, 0, 0, 0, 208, 232, 119, 61, 239, 91, 113, 62, 0, 145, 60, 0, 126, 0, 0, 127, 71, 58, 15, 58, 174, 195, 222, 189, 160, 241, 146, 61, 235, 216, 108, 62, 229, 148, 59, 0, 123, 229, 6, 127, 28, 58, 16, 58, 174, 195, 94, 190, 136, 212, 219, 61, 174, 195, 94, 62, 201, 156, 55, 0, 113, 201, 12, 127, 237, 57, 18, 58, 235, 216, 108, 62, 160, 241, 146, 61, 174, 195, 222, 61, 59, 148, 27, 0, 112, 59, 249, 127, 163, 58, 64, 58, 235, 216, 236, 61, 0, 122, 237, 60, 235, 216, 236, 61, 29, 137, 29, 0, 123, 29, 253, 127, 115, 58, 63, 58, 0, 0, 0, 0, 0, 28, 127, 60, 239, 91, 241, 61, 0, 133, 30, 0, 126, 0, 0, 127, 71, 58, 63, 58, 235, 216, 236, 189, 0, 122, 237, 60, 235, 216, 236, 61, 227, 137, 29, 0, 123, 227, 2, 127, 27, 58, 63, 58, 235, 216, 108, 190, 160, 241, 146, 61, 174, 195, 222, 61, 197, 148, 27, 0, 112, 197, 6, 127, 235, 57, 64, 58, 239, 91, 113, 62, 208, 232, 119, 61, 0, 0, 0, 128, 60, 145, 0, 0, 111, 60, 0, 127, 164, 58, 107, 58, 239, 91, 241, 61, 0, 28, 127, 60, 0, 0, 0, 128, 30, 133, 0, 0, 123, 30, 0, 127, 116, 58, 107, 58, 0, 0, 0, 0, 0, 108, 194, 58, 0, 0, 0, 128, 0, 130, 0, 0, 126, 0, 0, 127, 71, 58, 107, 58, 239, 91, 241, 189, 0, 28, 127, 60, 0, 0, 0, 128, 226, 133, 0, 0, 123, 226, 0, 127, 27, 58, 107, 58, 239, 91, 113, 190, 208, 232, 119, 61, 0, 0, 0, 128, 196, 145, 0, 0, 111, 196, 0, 127, 235, 57, 107, 58, 235, 216, 108, 62, 160, 241, 146, 61, 174, 195, 222, 189, 59, 148, 229, 0, 112, 59, 6, 127, 163, 58, 151, 58, 235, 216, 236, 61, 0, 122, 237, 60, 235, 216, 236, 189, 29, 137, 227, 0, 123, 29, 2, 127, 115, 58, 151, 58, 0, 0, 0, 0, 0, 28, 127, 60, 239, 91, 241, 189, 0, 133, 226, 0, 126, 0, 0, 127, 71, 58, 152, 58, 235, 216, 236, 189, 0, 122, 237, 60, 235, 216, 236, 189, 227, 137, 227, 0, 123, 227, 253, 127, 27, 58, 151, 58, 235, 216, 108, 190, 160, 241, 146, 61, 174, 195, 222, 189, 197, 148, 229, 0, 112, 197, 249, 127, 235, 57, 151, 58, 174, 195, 94, 62, 136, 212, 219, 61, 174, 195, 94, 190, 55, 156, 201, 0, 113, 55, 12, 127, 161, 58, 197, 58, 174, 195, 222, 61, 160, 241, 146, 61, 235, 216, 108, 190, 27, 148, 197, 0, 123, 27, 6, 127, 114, 58, 199, 58, 0, 0, 0, 0, 208, 232, 119, 61, 239, 91, 113, 190, 0, 145, 196, 0, 126, 0, 0, 127, 71, 58, 200, 58, 174, 195, 222, 189, 160, 241, 146, 61, 235, 216, 108, 190, 229, 148, 197, 0, 123, 229, 250, 127, 28, 58, 199, 58, 174, 195, 94, 190, 136, 212, 219, 61, 174, 195, 94, 190, 201, 156, 201, 0, 113, 201, 243, 127, 237, 57, 197, 58, 58, 205, 147, 62, 234, 35, 165, 63, 58, 205, 147, 190, 73, 73, 183, 0, 103, 214, 60, 127, 98, 54, 228, 58, 163, 17, 69, 62, 76, 245, 169, 63, 195, 18, 167, 190, 50, 82, 174, 0, 116, 229, 43, 127, 223, 53, 234, 58, 163, 17, 197, 61, 71, 153, 172, 63, 176, 162, 177, 190, 25, 88, 168, 0, 124, 244, 23, 127, 108, 53, 238, 58, 0, 0, 0, 0, 216, 113, 173, 63, 243, 4, 181, 190, 0, 89, 167, 0, 126, 4, 4, 127, 0, 53, 241, 58, 163, 17, 197, 189, 71, 153, 172, 63, 176, 162, 177, 190, 231, 88, 168, 0, 124, 20, 241, 127, 147, 52, 243, 58, 163, 17, 69, 190, 76, 245, 169, 63, 195, 18, 167, 190, 206, 82, 174, 0, 116, 35, 221, 127, 31, 52, 243, 58, 58, 205, 147, 190, 234, 35, 165, 63, 58, 205, 147, 190, 183, 73, 183, 0, 103, 49, 203, 127, 55, 51, 243, 58, 195, 18, 167, 62, 76, 245, 169, 63, 163, 17, 69, 190, 82, 82, 206, 0, 94, 202, 64, 127, 176, 54, 28, 59, 174, 195, 94, 62, 238, 163, 178, 63, 174, 195, 94, 190, 55, 100, 201, 0, 112, 219, 45, 127, 19, 54, 51, 59, 174, 195, 222, 61, 28, 50, 183, 63, 235, 216, 108, 190, 27, 108, 197, 0, 123, 239, 24, 127, 137, 53, 63, 59, 0, 0, 0, 0, 240, 161, 184, 63, 239, 91, 113, 190, 0, 111, 196, 0, 126, 2, 4, 127, 7, 53, 69, 59, 174, 195, 222, 189, 28, 50, 183, 63, 235, 216, 108, 190, 229, 108, 197, 0, 123, 23, 242, 127, 132, 52, 69, 59, 174, 195, 94, 190, 238, 163, 178, 63, 174, 195, 94, 190, 201, 100, 201, 0, 114, 43, 221, 127, 242, 51, 63, 59, 195, 18, 167, 190, 76, 245, 169, 63, 163, 17, 69, 190, 174, 82, 206, 0, 95, 61, 200, 127, 174, 50, 47, 59, 176, 162, 177, 62, 71, 153, 172, 63, 163, 17, 197, 189, 88, 88, 231, 0, 85, 189, 64, 127, 247, 54, 85, 59, 235, 216, 108, 62, 28, 50, 183, 63, 174, 195, 222, 189, 59, 108, 229, 0, 108, 209, 46, 127, 69, 54, 120, 59, 235, 216, 236, 61, 78, 171, 188, 63, 235, 216, 236, 189, 29, 119, 227, 0, 122, 233, 26, 127, 166, 53, 140, 59, 0, 0, 0, 0, 254, 98, 190, 63, 239, 91, 241, 189, 0, 123, 226, 0, 126, 1, 4, 127, 14, 53, 148, 59, 235, 216, 236, 189, 78, 171, 188, 63, 235, 216, 236, 189, 227, 119, 227, 0, 123, 26, 241, 127, 117, 52, 146, 59, 235, 216, 108, 190, 28, 50, 183, 63, 174, 195, 222, 189, 197, 108, 229, 0, 110, 51, 221, 127, 167, 51, 134, 59, 176, 162, 177, 190, 71, 153, 172, 63, 163, 17, 197, 189, 168, 88, 231, 0, 88, 72, 201, 127, 53, 50, 107, 59, 243, 4, 181, 62, 216, 113, 173, 63, 0, 0, 0, 128, 89, 89, 0, 0, 77, 179, 64, 127, 59, 55, 144, 59, 243, 4, 181, 62, 216, 113, 173, 63, 0, 0, 0, 128, 89, 89, 0, 0, 72, 184, 181, 127, 185, 57, 140, 45, 239, 91, 113, 62, 240, 161, 184, 63, 0, 0, 0, 128, 60, 111, 0, 0, 103, 201, 48, 127, 123, 54, 192, 59, 239, 91, 113, 62, 240, 161, 184, 63, 0, 0, 0, 128, 60, 111, 0, 0, 101, 201, 204, 127, 26, 57, 22, 41, 239, 91, 241, 61, 254, 98, 190, 63, 0, 0, 0, 128, 30, 123, 0, 0, 120, 227, 28, 127, 200, 53, 220, 59, 239, 91, 241, 61, 254, 98, 190, 63, 0, 0, 0, 128, 30, 123, 0, 0, 120, 227, 229, 127, 125, 56, 55, 35, 0, 0, 0, 0, 155, 48, 192, 63, 0, 0, 0, 128, 0, 126, 0, 0, 126, 0, 5, 127, 22, 53, 233, 59, 0, 0, 0, 0, 155, 48, 192, 63, 0, 0, 0, 128, 0, 126, 0, 0, 126, 0, 1, 127, 188, 55, 179, 29, 239, 91, 241, 189, 254, 98, 190, 63, 0, 0, 0, 128, 226, 123, 0, 0, 122, 29, 239, 127, 97, 52, 228, 59, 239, 91, 241, 189, 254, 98, 190, 63, 0, 0, 0, 128, 226, 123, 0, 0, 119, 29, 33, 127, 125, 54, 125, 36, 239, 91, 113, 190, 240, 161, 184, 63, 0, 0, 0, 128, 196, 111, 0, 0, 106, 57, 220, 127, 84, 51, 208, 59, 239, 91, 113, 190, 240, 161, 184, 63, 0, 0, 0, 128, 196, 111, 0, 0, 98, 53, 60, 127, 72, 53, 253, 41, 243, 4, 181, 190, 216, 113, 173, 63, 0, 0, 0, 128, 167, 89, 0, 0, 81, 81, 203, 127, 195, 49, 170, 59, 243, 4, 181, 190, 216, 113, 173, 63, 0, 0, 0, 128, 167, 89, 0, 0, 67, 67, 83, 127, 16, 52, 65, 46, 176, 162, 177, 62, 71, 153, 172, 63, 163, 17, 197, 61, 88, 88, 25, 0, 83, 194, 184, 127, 117, 57, 51, 48, 235, 216, 108, 62, 28, 50, 183, 63, 174, 195, 222, 61, 59, 108, 27, 0, 107, 211, 206, 127, 230, 56, 81, 46, 235, 216, 236, 61, 78, 171, 188, 63, 235, 216, 236, 61, 29, 119, 29, 0, 122, 232, 232, 127, 98, 56, 72, 45, 0, 0, 0, 0, 254, 98, 190, 63, 239, 91, 241, 61, 0, 123, 30, 0, 126, 0, 1, 127, 194, 55, 8, 45, 235, 216, 236, 189, 78, 171, 188, 63, 235, 216, 236, 61, 227, 119, 29, 0, 121, 22, 28, 127, 193, 54, 120, 45, 235, 216, 108, 190, 28, 50, 183, 63, 174, 195, 222, 61, 197, 108, 27, 0, 105, 43, 55, 127, 187, 53, 180, 46, 176, 162, 177, 190, 71, 153, 172, 63, 163, 17, 197, 61, 168, 88, 25, 0, 79, 56, 80, 127, 162, 52, 131, 48, 195, 18, 167, 62, 76, 245, 169, 63, 163, 17, 69, 62, 82, 82, 50, 0, 93, 205, 188, 127, 54, 57, 138, 49, 174, 195, 94, 62, 238, 163, 178, 63, 174, 195, 94, 62, 55, 100, 55, 0, 112, 220, 210, 127, 187, 56, 231, 48, 174, 195, 222, 61, 28, 50, 183, 63, 235, 216, 108, 62, 27, 108, 59, 0, 123, 237, 235, 127, 77, 56, 156, 48, 0, 0, 0, 0, 240, 161, 184, 63, 239, 91, 113, 62, 0, 111, 60, 0, 126, 255, 2, 127, 201, 55, 142, 48, 174, 195, 222, 189, 28, 50, 183, 63, 235, 216, 108, 62, 229, 108, 59, 0, 123, 16, 26, 127, 248, 54, 176, 48, 174, 195, 94, 190, 238, 163, 178, 63, 174, 195, 94, 62, 201, 100, 55, 0, 111, 32, 51, 127, 29, 54, 17, 49, 195, 18, 167, 190, 76, 245, 169, 63, 163, 17, 69, 62, 174, 82, 50, 0, 91, 45, 75, 127, 43, 53, 206, 49, 58, 205, 147, 62, 234, 35, 165, 63, 58, 205, 147, 62, 73, 73, 73, 0, 102, 218, 193, 127, 245, 56, 222, 50, 163, 17, 69, 62, 76, 245, 169, 63, 195, 18, 167, 62, 50, 82, 82, 0, 116, 228, 214, 127, 146, 56, 174, 50, 163, 17, 197, 61, 71, 153, 172, 63, 176, 162, 177, 62, 25, 88, 88, 0, 124, 240, 237, 127, 58, 56, 156, 50, 0, 0, 0, 0, 216, 113, 173, 63, 243, 4, 181, 62, 0, 89, 89, 0, 126, 254, 2, 127, 207, 55, 159, 50, 163, 17, 197, 189, 71, 153, 172, 63, 176, 162, 177, 62, 231, 88, 88, 0, 124, 11, 24, 127, 41, 55, 172, 50, 163, 17, 69, 190, 76, 245, 169, 63, 195, 18, 167, 62, 206, 82, 82, 0, 115, 22, 48, 127, 123, 54, 208, 50, 58, 205, 147, 190, 234, 35, 165, 63, 58, 205, 147, 62, 183, 73, 73, 0, 101, 34, 67, 127, 182, 53, 21, 51, 243, 4, 181, 190, 155, 48, 128, 63, 243, 4, 181, 62, 130, 8, 251, 0, 251, 8, 126, 127, 38, 53, 191, 53, 243, 4, 181, 190, 155, 48, 128, 63, 243, 4, 181, 62, 162, 4, 85, 0, 83, 28, 91, 127, 38, 53, 191, 53, 243, 4, 181, 190, 155, 48, 128, 63, 243, 4, 181, 62, 208, 159, 65, 0, 86, 18, 91, 127, 38, 53, 191, 53, 176, 162, 177, 190, 181, 129, 140, 63, 176, 162, 177, 62, 131, 16, 249, 0, 254, 40, 120, 127, 65, 53, 6, 53, 176, 162, 177, 190, 181, 129, 140, 63, 176, 162, 177, 62, 156, 24, 73, 0, 77, 33, 94, 127, 65, 53, 6, 53, 195, 18, 167, 190, 207, 210, 152, 63, 195, 18, 167, 62, 132, 24, 247, 0, 6, 71, 104, 127, 126, 53, 82, 52, 195, 18, 167, 190, 207, 210, 152, 63, 195, 18, 167, 62, 170, 54, 75, 0, 92, 33, 80, 127, 126, 53, 82, 52, 195, 18, 167, 190, 207, 210, 152, 63, 195, 18, 167, 62, 219, 120, 16, 0, 101, 22, 72, 127, 126, 53, 82, 52, 232, 208, 77, 190, 93, 110, 126, 63, 189, 29, 190, 62, 211, 0, 118, 0, 116, 234, 44, 127, 128, 54, 92, 54, 232, 208, 77, 190, 93, 110, 126, 63, 189, 29, 190, 62, 252, 130, 11, 0, 118, 0, 45, 127, 128, 54, 92, 54, 232, 208, 77, 190, 93, 110, 126, 63, 189, 29, 190, 62, 113, 0, 56, 0, 24, 114, 208, 127, 128, 54, 92, 54, 81, 103, 199, 189, 93, 110, 126, 63, 206, 90, 210, 62, 134, 0, 223, 0, 224, 23, 120, 127, 181, 54, 82, 54, 81, 103, 199, 189, 93, 110, 126, 63, 206, 90, 210, 62, 211, 0, 118, 0, 116, 234, 44, 127, 181, 54, 82, 54, 81, 103, 199, 189, 93, 110, 126, 63, 206, 90, 210, 62, 252, 130, 11, 0, 122, 255, 33, 127, 181, 54, 82, 54, 0, 0, 0, 0, 155, 48, 128, 63, 0, 0, 0, 63, 0, 160, 82, 0, 126, 254, 253, 127, 225, 55, 15, 54, 0, 0, 0, 0, 155, 48, 128, 63, 0, 0, 0, 63, 0, 0, 127, 0, 126, 254, 0, 127, 225, 55, 15, 54, 81, 103, 199, 61, 93, 110, 126, 63, 206, 90, 210, 62, 4, 130, 11, 0, 106, 254, 188, 127, 137, 56, 80, 54, 81, 103, 199, 61, 93, 110, 126, 63, 206, 90, 210, 62, 45, 0, 118, 0, 111, 213, 214, 127, 137, 56, 80, 54, 81, 103, 199, 61, 93, 110, 126, 63, 206, 90, 210, 62, 122, 0, 223, 0, 241, 111, 199, 127, 137, 56, 80, 54, 232, 208, 77, 62, 93, 110, 126, 63, 189, 29, 190, 62, 143, 0, 56, 0, 56, 14, 112, 127, 162, 56, 60, 54, 232, 208, 77, 62, 93, 110, 126, 63, 189, 29, 190, 62, 4, 130, 11, 0, 109, 254, 192, 127, 162, 56, 60, 54, 232, 208, 77, 62, 93, 110, 126, 63, 189, 29, 190, 62, 45, 0, 118, 0, 111, 212, 214, 127, 162, 56, 60, 54, 243, 4, 181, 62, 155, 48, 128, 63, 243, 4, 181, 62, 48, 159, 65, 0, 74, 227, 158, 127, 76, 57, 158, 53, 243, 4, 181, 62, 155, 48, 128, 63, 243, 4, 181, 62, 94, 4, 85, 0, 82, 221, 167, 127, 76, 57, 158, 53, 243, 4, 181, 62, 155, 48, 128, 63, 243, 4, 181, 62, 126, 8, 251, 0, 252, 239, 131, 127, 76, 57, 158, 53, 176, 162, 177, 62, 181, 129, 140, 63, 176, 162, 177, 62, 100, 24, 73, 0, 77, 214, 166, 127, 57, 57, 227, 52, 176, 162, 177, 62, 181, 129, 140, 63, 176, 162, 177, 62, 125, 16, 249, 0, 0, 200, 143, 127, 57, 57, 227, 52, 155, 50, 115, 190, 227, 99, 154, 63, 17, 154, 225, 62, 200, 41, 106, 0, 113, 16, 53, 127, 102, 54, 157, 52, 155, 50, 115, 190, 227, 99, 154, 63, 17, 154, 225, 62, 226, 121, 20, 0, 112, 19, 54, 127, 102, 54, 157, 52, 100, 220, 242, 189, 153, 69, 156, 63, 193, 135, 245, 62, 228, 44, 115, 0, 123, 6, 27, 127, 37, 55, 152, 52, 100, 220, 242, 189, 153, 69, 156, 63, 193, 135, 245, 62, 241, 123, 26, 0, 123, 9, 29, 127, 37, 55, 152, 52, 0, 0, 0, 0, 63, 223, 156, 63, 165, 203, 251, 62, 0, 44, 118, 0, 126, 254, 1, 127, 215, 55, 146, 52, 0, 0, 0, 0, 63, 223, 156, 63, 165, 203, 251, 62, 0, 123, 28, 0, 126, 0, 4, 127, 215, 55, 146, 52, 101, 220, 242, 61, 153, 69, 156, 63, 193, 135, 245, 62, 15, 123, 26, 0, 124, 246, 234, 127, 68, 56, 142, 52, 101, 220, 242, 61, 153, 69, 156, 63, 193, 135, 245, 62, 28, 44, 115, 0, 123, 244, 231, 127, 68, 56, 142, 52, 155, 50, 115, 62, 227, 99, 154, 63, 17, 154, 225, 62, 30, 121, 20, 0, 114, 236, 205, 127, 164, 56, 138, 52, 155, 50, 115, 62, 227, 99, 154, 63, 17, 154, 225, 62, 56, 41, 106, 0, 113, 234, 205, 127, 164, 56, 138, 52, 195, 18, 167, 62, 207, 210, 152, 63, 195, 18, 167, 62, 37, 120, 16, 0, 106, 232, 193, 127, 22, 57, 51, 52, 195, 18, 167, 62, 207, 210, 152, 63, 195, 18, 167, 62, 86, 54, 75, 0, 92, 215, 180, 127, 22, 57, 51, 52, 195, 18, 167, 62, 207, 210, 152, 63, 195, 18, 167, 62, 124, 24, 247, 0, 7, 179, 156, 127, 22, 57, 51, 52, 243, 4, 181, 62, 47, 83, 100, 63, 243, 4, 181, 190, 89, 0, 167, 0, 88, 238, 88, 127, 247, 54, 221, 57, 239, 91, 113, 62, 47, 83, 100, 63, 82, 197, 225, 190, 61, 0, 145, 0, 110, 246, 60, 127, 44, 54, 209, 57, 239, 91, 241, 61, 47, 83, 100, 63, 139, 201, 248, 190, 30, 0, 133, 0, 123, 253, 30, 127, 133, 53, 204, 57, 0, 0, 0, 0, 47, 83, 100, 63, 0, 0, 0, 191, 0, 0, 129, 0, 126, 4, 0, 127, 233, 52, 205, 57, 239, 91, 241, 189, 47, 83, 100, 63, 139, 201, 248, 190, 226, 0, 133, 0, 122, 12, 226, 127, 77, 52, 210, 57, 239, 91, 113, 190, 47, 83, 100, 63, 82, 197, 225, 190, 195, 0, 145, 0, 109, 21, 196, 127, 74, 51, 221, 57, 243, 4, 181, 190, 47, 83, 100, 63, 243, 4, 181, 190, 167, 0, 167, 0, 87, 29, 169, 127, 180, 49, 241, 57, 82, 197, 225, 190, 47, 83, 100, 63, 239, 91, 113, 190, 145, 0, 195, 0, 58, 35, 149, 127, 250, 47, 15, 58, 213, 172, 22, 191, 87, 154, 103, 63, 168, 89, 53, 190, 136, 220, 242, 0, 17, 250, 131, 127, 55, 42, 129, 58, 213, 172, 22, 191, 87, 154, 103, 63, 168, 89, 53, 190, 242, 130, 255, 0, 57, 251, 144, 127, 55, 42, 129, 58, 213, 172, 22, 191, 87, 154, 103, 63, 168, 89, 53, 190, 75, 238, 156, 0, 87, 76, 51, 127, 55, 42, 129, 58, 221, 128, 25, 191, 87, 154, 103, 63, 242, 106, 173, 189, 136, 220, 242, 0, 27, 214, 140, 127, 117, 38, 107, 58, 221, 128, 25, 191, 87, 154, 103, 63, 242, 106, 173, 189, 167, 14, 89, 0, 88, 35, 83, 127, 225, 36, 93, 53, 221, 128, 25, 191, 87, 154, 103, 63, 242, 106, 173, 189, 242, 130, 255, 0, 60, 251, 145, 127, 117, 38, 107, 58, 139, 201, 248, 190, 47, 83, 100, 63, 239, 91, 241, 61, 133, 0, 30, 0, 29, 30, 119, 127, 84, 49, 31, 54, 82, 197, 225, 190, 47, 83, 100, 63, 239, 91, 113, 62, 145, 0, 61, 0, 59, 27, 108, 127, 137, 51, 97, 54, 243, 4, 181, 190, 47, 83, 100, 63, 243, 4, 181, 62, 167, 0, 89, 0, 87, 25, 87, 127, 251, 52, 154, 54, 232, 208, 77, 190, 8, 70, 102, 63, 189, 29, 190, 62, 211, 0, 118, 0, 116, 234, 44, 127, 133, 54, 140, 54, 232, 208, 77, 190, 8, 70, 102, 63, 189, 29, 190, 62, 252, 126, 11, 0, 113, 255, 56, 127, 133, 54, 140, 54, 232, 208, 77, 190, 8, 70, 102, 63, 189, 29, 190, 62, 113, 0, 56, 0, 55, 21, 145, 127, 133, 54, 140, 54, 81, 103, 199, 189, 8, 70, 102, 63, 206, 90, 210, 62, 134, 0, 223, 0, 243, 115, 50, 127, 186, 54, 129, 54, 81, 103, 199, 189, 8, 70, 102, 63, 206, 90, 210, 62, 211, 0, 118, 0, 116, 233, 44, 127, 186, 54, 129, 54, 81, 103, 199, 189, 8, 70, 102, 63, 206, 90, 210, 62, 252, 126, 11, 0, 118, 0, 46, 127, 186, 54, 129, 54, 0, 0, 0, 0, 47, 83, 100, 63, 0, 0, 0, 63, 0, 0, 127, 0, 126, 255, 0, 127, 233, 55, 218, 54, 81, 103, 199, 61, 8, 70, 102, 63, 206, 90, 210, 62, 4, 126, 11, 0, 124, 255, 231, 127, 144, 56, 126, 54, 81, 103, 199, 61, 8, 70, 102, 63, 206, 90, 210, 62, 45, 0, 118, 0, 111, 212, 214, 127, 144, 56, 126, 54, 81, 103, 199, 61, 8, 70, 102, 63, 206, 90, 210, 62, 122, 0, 223, 0, 223, 12, 135, 127, 144, 56, 126, 54, 232, 208, 77, 62, 8, 70, 102, 63, 189, 29, 190, 62, 143, 0, 56, 0, 26, 112, 53, 127, 169, 56, 106, 54, 232, 208, 77, 62, 8, 70, 102, 63, 189, 29, 190, 62, 4, 126, 11, 0, 125, 254, 240, 127, 169, 56, 106, 54, 232, 208, 77, 62, 8, 70, 102, 63, 189, 29, 190, 62, 45, 0, 118, 0, 111, 212, 214, 127, 169, 56, 106, 54, 243, 4, 181, 62, 47, 83, 100, 63, 243, 4, 181, 62, 89, 0, 89, 0, 87, 226, 169, 127, 108, 57, 117, 54, 82, 197, 225, 62, 47, 83, 100, 63, 239, 91, 113, 62, 111, 0, 61, 0, 58, 221, 150, 127, 3, 58, 38, 54, 139, 201, 248, 62, 47, 83, 100, 63, 239, 91, 241, 61, 123, 0, 30, 0, 28, 218, 139, 127, 142, 58, 210, 53, 221, 128, 25, 63, 87, 154, 103, 63, 242, 106, 173, 189, 14, 130, 255, 0, 64, 6, 109, 127, 179, 56, 62, 58, 221, 128, 25, 63, 87, 154, 103, 63, 242, 106, 173, 189, 89, 14, 89, 0, 87, 211, 176, 127, 177, 59, 226, 52, 221, 128, 25, 63, 87, 154, 103, 63, 242, 106, 173, 189, 120, 220, 242, 0, 29, 50, 112, 127, 179, 56, 62, 58, 213, 172, 22, 63, 87, 154, 103, 63, 168, 89, 53, 190, 181, 238, 156, 0, 18, 131, 9, 127, 137, 56, 88, 58, 213, 172, 22, 63, 87, 154, 103, 63, 168, 89, 53, 190, 14, 130, 255, 0, 69, 6, 105, 127, 137, 56, 88, 58, 213, 172, 22, 63, 87, 154, 103, 63, 168, 89, 53, 190, 120, 220, 242, 0, 37, 93, 77, 127, 137, 56, 88, 58, 82, 197, 225, 62, 47, 83, 100, 63, 239, 91, 113, 190, 111, 0, 195, 0, 59, 228, 108, 127, 214, 55, 240, 57, 239, 91, 113, 190, 47, 83, 100, 63, 82, 197, 225, 62, 190, 0, 108, 0, 107, 17, 65, 127, 31, 54, 213, 54, 239, 91, 113, 190, 47, 83, 100, 63, 82, 197, 225, 62, 252, 126, 11, 0, 116, 0, 50, 127, 31, 54, 213, 54, 239, 91, 113, 190, 47, 83, 100, 63, 82, 197, 225, 62, 113, 0, 56, 0, 52, 210, 151, 127, 31, 54, 213, 54, 239, 91, 113, 190, 155, 48, 128, 63, 82, 197, 225, 62, 181, 0, 102, 0, 99, 27, 73, 127, 51, 54, 5, 54, 239, 91, 113, 190, 155, 48, 128, 63, 82, 197, 225, 62, 227, 146, 55, 0, 106, 6, 69, 127, 51, 54, 5, 54, 239, 91, 113, 190, 155, 48, 128, 63, 82, 197, 225, 62, 113, 0, 56, 0, 50, 59, 156, 127, 51, 54, 5, 54, 239, 91, 241, 189, 47, 83, 100, 63, 139, 201, 248, 62, 134, 0, 223, 0, 227, 60, 107, 127, 12, 55, 219, 54, 239, 91, 241, 189, 47, 83, 100, 63, 139, 201, 248, 62, 231, 0, 124, 0, 124, 1, 25, 127, 12, 55, 219, 54, 239, 91, 241, 189, 47, 83, 100, 63, 139, 201, 248, 62, 252, 126, 11, 0, 120, 0, 40, 127, 12, 55, 219, 54, 239, 91, 241, 189, 155, 48, 128, 63, 139, 201, 248, 62, 134, 0, 223, 0, 225, 212, 114, 127, 15, 55, 13, 54, 239, 91, 241, 189, 155, 48, 128, 63, 139, 201, 248, 62, 241, 146, 61, 0, 121, 2, 35, 127, 15, 55, 13, 54, 239, 91, 241, 189, 155, 48, 128, 63, 139, 201, 248, 62, 241, 0, 126, 0, 126, 1, 15, 127, 15, 55, 13, 54, 239, 91, 241, 61, 47, 83, 100, 63, 139, 201, 248, 62, 4, 126, 11, 0, 125, 254, 236, 127, 102, 56, 215, 54, 239, 91, 241, 61, 47, 83, 100, 63, 139, 201, 248, 62, 25, 0, 124, 0, 124, 248, 231, 127, 102, 56, 215, 54, 239, 91, 241, 61, 47, 83, 100, 63, 139, 201, 248, 62, 122, 0, 223, 0, 227, 199, 147, 127, 102, 56, 215, 54, 239, 91, 241, 61, 155, 48, 128, 63, 139, 201, 248, 62, 15, 0, 126, 0, 126, 253, 241, 127, 89, 56, 6, 54, 239, 91, 241, 61, 155, 48, 128, 63, 139, 201, 248, 62, 15, 146, 61, 0, 117, 246, 208, 127, 89, 56, 6, 54, 239, 91, 241, 61, 155, 48, 128, 63, 139, 201, 248, 62, 122, 0, 223, 0, 226, 51, 145, 127, 89, 56, 6, 54, 239, 91, 113, 62, 47, 83, 100, 63, 82, 197, 225, 62, 143, 0, 56, 0, 51, 52, 103, 127, 219, 56, 180, 54, 239, 91, 113, 62, 47, 83, 100, 63, 82, 197, 225, 62, 4, 126, 11, 0, 126, 253, 245, 127, 219, 56, 180, 54, 239, 91, 113, 62, 47, 83, 100, 63, 82, 197, 225, 62, 66, 0, 108, 0, 106, 230, 192, 127, 219, 56, 180, 54, 239, 91, 113, 62, 155, 48, 128, 63, 82, 197, 225, 62, 143, 0, 56, 0, 51, 202, 102, 127, 199, 56, 233, 53, 239, 91, 113, 62, 155, 48, 128, 63, 82, 197, 225, 62, 29, 146, 55, 0, 102, 247, 183, 127, 199, 56, 233, 53, 239, 91, 113, 62, 155, 48, 128, 63, 82, 197, 225, 62, 75, 0, 102, 0, 98, 223, 184, 127, 199, 56, 233, 53, 139, 201, 248, 190, 47, 83, 100, 63, 239, 91, 241, 189, 135, 0, 221, 0, 35, 10, 135, 127, 102, 44, 46, 58, 139, 201, 248, 190, 47, 83, 100, 63, 239, 91, 241, 189, 242, 130, 255, 0, 60, 251, 145, 127, 102, 44, 46, 58, 139, 201, 248, 190, 47, 83, 100, 63, 239, 91, 241, 189, 75, 238, 156, 0, 86, 78, 50, 127, 102, 44, 46, 58, 139, 201, 248, 190, 155, 48, 128, 63, 239, 91, 241, 189, 138, 7, 211, 0, 44, 41, 145, 127, 34, 46, 132, 58, 139, 201, 248, 190, 155, 48, 128, 63, 239, 91, 241, 189, 76, 252, 156, 0, 92, 53, 68, 127, 34, 46, 132, 58, 0, 0, 0, 191, 47, 83, 100, 63, 0, 0, 0, 128, 130, 0, 5, 0, 252, 225, 134, 127, 196, 36, 12, 58, 0, 0, 0, 191, 47, 83, 100, 63, 0, 0, 0, 128, 130, 0, 5, 0, 4, 33, 122, 127, 60, 46, 218, 53, 0, 0, 0, 191, 47, 83, 100, 63, 0, 0, 0, 128, 167, 14, 89, 0, 88, 35, 83, 127, 60, 46, 218, 53, 0, 0, 0, 191, 47, 83, 100, 63, 0, 0, 0, 128, 242, 130, 255, 0, 62, 251, 146, 127, 196, 36, 12, 58, 0, 0, 0, 191, 155, 48, 128, 63, 0, 0, 0, 128, 131, 7, 15, 0, 16, 43, 118, 127, 105, 47, 200, 52, 0, 0, 0, 191, 155, 48, 128, 63, 0, 0, 0, 128, 166, 5, 89, 0, 86, 37, 84, 127, 105, 47, 200, 52, 204, 234, 241, 190, 42, 254, 142, 63, 235, 216, 236, 189, 139, 34, 222, 0, 48, 77, 169, 127, 255, 46, 233, 58, 204, 234, 241, 190, 42, 254, 142, 63, 235, 216, 236, 189, 0, 126, 254, 0, 121, 0, 36, 127, 255, 46, 233, 58, 204, 234, 241, 190, 42, 254, 142, 63, 235, 216, 236, 189, 77, 10, 156, 0, 100, 243, 76, 127, 255, 46, 233, 58, 139, 201, 248, 190, 90, 70, 143, 63, 0, 0, 0, 128, 135, 35, 5, 0, 30, 112, 205, 127, 202, 45, 72, 59, 139, 201, 248, 190, 90, 70, 143, 63, 0, 0, 0, 128, 135, 35, 5, 0, 21, 57, 111, 127, 166, 48, 86, 51, 139, 201, 248, 190, 90, 70, 143, 63, 0, 0, 0, 128, 166, 254, 89, 0, 84, 37, 86, 127, 166, 48, 86, 51, 139, 201, 248, 190, 90, 70, 143, 63, 0, 0, 0, 128, 0, 126, 254, 0, 126, 0, 3, 127, 202, 45, 72, 59, 0, 0, 0, 63, 47, 83, 100, 63, 0, 0, 0, 128, 14, 130, 255, 0, 70, 6, 105, 127, 184, 56, 232, 57, 0, 0, 0, 63, 47, 83, 100, 63, 0, 0, 0, 128, 89, 14, 89, 0, 87, 211, 176, 127, 25, 59, 119, 53, 0, 0, 0, 63, 47, 83, 100, 63, 0, 0, 0, 128, 126, 0, 5, 0, 252, 51, 116, 127, 184, 56, 232, 57, 0, 0, 0, 63, 47, 83, 100, 63, 0, 0, 0, 128, 126, 0, 5, 0, 4, 221, 135, 127, 25, 59, 119, 53, 0, 0, 0, 63, 155, 48, 128, 63, 0, 0, 0, 128, 90, 5, 89, 0, 84, 211, 174, 127, 232, 58, 111, 52, 0, 0, 0, 63, 155, 48, 128, 63, 0, 0, 0, 128, 125, 7, 15, 0, 16, 210, 139, 127, 232, 58, 111, 52, 139, 201, 248, 62, 47, 83, 100, 63, 239, 91, 241, 189, 181, 238, 156, 0, 90, 187, 201, 127, 90, 56, 13, 58, 139, 201, 248, 62, 47, 83, 100, 63, 239, 91, 241, 189, 14, 130, 255, 0, 75, 7, 102, 127, 90, 56, 13, 58, 139, 201, 248, 62, 47, 83, 100, 63, 239, 91, 241, 189, 121, 0, 221, 0, 35, 246, 121, 127, 90, 56, 13, 58, 139, 201, 248, 62, 155, 48, 128, 63, 239, 91, 241, 189, 180, 252, 156, 0, 100, 245, 180, 127, 46, 56, 98, 58, 139, 201, 248, 62, 155, 48, 128, 63, 239, 91, 241, 189, 118, 7, 211, 0, 44, 215, 111, 127, 46, 56, 98, 58, 139, 201, 248, 62, 90, 70, 143, 63, 0, 0, 0, 128, 0, 126, 254, 0, 126, 0, 13, 127, 73, 56, 31, 59, 139, 201, 248, 62, 90, 70, 143, 63, 0, 0, 0, 128, 90, 254, 89, 0, 82, 210, 172, 127, 163, 58, 189, 50, 139, 201, 248, 62, 90, 70, 143, 63, 0, 0, 0, 128, 121, 35, 5, 0, 25, 156, 73, 127, 73, 56, 31, 59, 139, 201, 248, 62, 90, 70, 143, 63, 0, 0, 0, 128, 121, 35, 5, 0, 21, 197, 146, 127, 163, 58, 189, 50, 204, 234, 241, 62, 42, 254, 142, 63, 235, 216, 236, 189, 179, 10, 156, 0, 97, 37, 185, 127, 26, 56, 198, 58, 204, 234, 241, 62, 42, 254, 142, 63, 235, 216, 236, 189, 0, 126, 254, 0, 126, 0, 8, 127, 26, 56, 198, 58, 204, 234, 241, 62, 42, 254, 142, 63, 235, 216, 236, 189, 117, 34, 222, 0, 48, 186, 93, 127, 26, 56, 198, 58 ),
"array_index_data": PoolByteArray( 0, 0, 7, 0, 1, 0, 0, 0, 6, 0, 7, 0, 1, 0, 8, 0, 2, 0, 1, 0, 7, 0, 8, 0, 2, 0, 9, 0, 3, 0, 2, 0, 8, 0, 9, 0, 3, 0, 10, 0, 4, 0, 3, 0, 9, 0, 10, 0, 4, 0, 11, 0, 5, 0, 4, 0, 10, 0, 11, 0, 5, 0, 54, 0, 48, 0, 5, 0, 11, 0, 54, 0, 6, 0, 13, 0, 7, 0, 6, 0, 12, 0, 13, 0, 7, 0, 14, 0, 8, 0, 7, 0, 13, 0, 14, 0, 8, 0, 15, 0, 9, 0, 8, 0, 14, 0, 15, 0, 9, 0, 16, 0, 10, 0, 9, 0, 15, 0, 16, 0, 10, 0, 17, 0, 11, 0, 10, 0, 16, 0, 17, 0, 11, 0, 60, 0, 54, 0, 11, 0, 17, 0, 60, 0, 12, 0, 22, 0, 13, 0, 12, 0, 19, 0, 22, 0, 13, 0, 25, 0, 14, 0, 13, 0, 22, 0, 25, 0, 14, 0, 28, 0, 15, 0, 14, 0, 25, 0, 28, 0, 15, 0, 31, 0, 16, 0, 15, 0, 28, 0, 31, 0, 16, 0, 34, 0, 17, 0, 16, 0, 31, 0, 34, 0, 17, 0, 67, 0, 60, 0, 17, 0, 34, 0, 67, 0, 97, 1, 23, 0, 98, 1, 97, 1, 20, 0, 23, 0, 98, 1, 26, 0, 99, 1, 98, 1, 23, 0, 26, 0, 99, 1, 29, 0, 100, 1, 99, 1, 26, 0, 29, 0, 100, 1, 32, 0, 101, 1, 100, 1, 29, 0, 32, 0, 101, 1, 35, 0, 102, 1, 101, 1, 32, 0, 35, 0, 102, 1, 68, 0, 103, 1, 102, 1, 35, 0, 68, 0, 20, 0, 37, 0, 23, 0, 20, 0, 36, 0, 37, 0, 23, 0, 38, 0, 26, 0, 23, 0, 37, 0, 38, 0, 26, 0, 39, 0, 29, 0, 26, 0, 38, 0, 39, 0, 29, 0, 40, 0, 32, 0, 29, 0, 39, 0, 40, 0, 32, 0, 41, 0, 35, 0, 32, 0, 40, 0, 41, 0, 35, 0, 89, 0, 68, 0, 35, 0, 41, 0, 89, 0, 36, 0, 43, 0, 37, 0, 36, 0, 42, 0, 43, 0, 37, 0, 44, 0, 38, 0, 37, 0, 43, 0, 44, 0, 38, 0, 45, 0, 39, 0, 38, 0, 44, 0, 45, 0, 39, 0, 46, 0, 40, 0, 39, 0, 45, 0, 46, 0, 40, 0, 47, 0, 41, 0, 40, 0, 46, 0, 47, 0, 41, 0, 99, 0, 89, 0, 41, 0, 47, 0, 99, 0, 42, 0, 2, 1, 43, 0, 42, 0, 1, 1, 2, 1, 43, 0, 3, 1, 44, 0, 43, 0, 2, 1, 3, 1, 44, 0, 4, 1, 45, 0, 44, 0, 3, 1, 4, 1, 45, 0, 5, 1, 46, 0, 45, 0, 4, 1, 5, 1, 46, 0, 6, 1, 47, 0, 46, 0, 5, 1, 6, 1, 47, 0, 7, 1, 99, 0, 47, 0, 6, 1, 7, 1, 48, 0, 55, 0, 49, 0, 48, 0, 54, 0, 55, 0, 49, 0, 56, 0, 50, 0, 49, 0, 55, 0, 56, 0, 50, 0, 57, 0, 51, 0, 50, 0, 56, 0, 57, 0, 51, 0, 58, 0, 52, 0, 51, 0, 57, 0, 58, 0, 52, 0, 59, 0, 53, 0, 52, 0, 58, 0, 59, 0, 53, 0, 112, 0, 106, 0, 53, 0, 59, 0, 112, 0, 54, 0, 61, 0, 55, 0, 54, 0, 60, 0, 61, 0, 55, 0, 62, 0, 56, 0, 55, 0, 61, 0, 62, 0, 56, 0, 63, 0, 57, 0, 56, 0, 62, 0, 63, 0, 57, 0, 64, 0, 58, 0, 57, 0, 63, 0, 64, 0, 58, 0, 65, 0, 59, 0, 58, 0, 64, 0, 65, 0, 59, 0, 118, 0, 112, 0, 59, 0, 65, 0, 118, 0, 60, 0, 70, 0, 61, 0, 60, 0, 67, 0, 70, 0, 61, 0, 73, 0, 62, 0, 61, 0, 70, 0, 73, 0, 62, 0, 79, 0, 63, 0, 62, 0, 73, 0, 79, 0, 63, 0, 84, 0, 64, 0, 63, 0, 79, 0, 84, 0, 64, 0, 87, 0, 65, 0, 64, 0, 84, 0, 87, 0, 65, 0, 125, 0, 118, 0, 65, 0, 87, 0, 125, 0, 103, 1, 71, 0, 104, 1, 103, 1, 68, 0, 71, 0, 104, 1, 164, 1, 161, 1, 104, 1, 71, 0, 164, 1, 105, 1, 80, 0, 108, 1, 105, 1, 74, 0, 80, 0, 167, 1, 85, 0, 111, 1, 167, 1, 170, 1, 85, 0, 111, 1, 88, 0, 112, 1, 111, 1, 85, 0, 88, 0, 112, 1, 58, 1, 113, 1, 112, 1, 88, 0, 58, 1, 68, 0, 90, 0, 71, 0, 68, 0, 89, 0, 90, 0, 71, 0, 172, 1, 164, 1, 71, 0, 90, 0, 172, 1, 75, 0, 94, 0, 81, 0, 75, 0, 91, 0, 94, 0, 170, 1, 97, 0, 85, 0, 170, 1, 176, 1, 97, 0, 85, 0, 98, 0, 88, 0, 85, 0, 97, 0, 98, 0, 88, 0, 61, 1, 58, 1, 88, 0, 98, 0, 61, 1, 89, 0, 100, 0, 90, 0, 89, 0, 99, 0, 100, 0, 90, 0, 101, 0, 172, 1, 90, 0, 100, 0, 101, 0, 172, 1, 102, 0, 175, 1, 172, 1, 101, 0, 102, 0, 176, 1, 104, 0, 97, 0, 176, 1, 103, 0, 104, 0, 97, 0, 105, 0, 98, 0, 97, 0, 104, 0, 105, 0, 98, 0, 63, 1, 61, 1, 98, 0, 105, 0, 63, 1, 99, 0, 14, 1, 100, 0, 99, 0, 7, 1, 14, 1, 100, 0, 21, 1, 101, 0, 100, 0, 14, 1, 21, 1, 101, 0, 34, 1, 102, 0, 101, 0, 21, 1, 34, 1, 103, 0, 42, 1, 104, 0, 103, 0, 35, 1, 42, 1, 104, 0, 49, 1, 105, 0, 104, 0, 42, 1, 49, 1, 105, 0, 56, 1, 63, 1, 105, 0, 49, 1, 56, 1, 106, 0, 113, 0, 107, 0, 106, 0, 112, 0, 113, 0, 107, 0, 114, 0, 108, 0, 107, 0, 113, 0, 114, 0, 108, 0, 115, 0, 109, 0, 108, 0, 114, 0, 115, 0, 109, 0, 116, 0, 110, 0, 109, 0, 115, 0, 116, 0, 110, 0, 117, 0, 111, 0, 110, 0, 116, 0, 117, 0, 111, 0, 175, 0, 169, 0, 111, 0, 117, 0, 175, 0, 112, 0, 119, 0, 113, 0, 112, 0, 118, 0, 119, 0, 113, 0, 120, 0, 114, 0, 113, 0, 119, 0, 120, 0, 114, 0, 121, 0, 115, 0, 114, 0, 120, 0, 121, 0, 115, 0, 122, 0, 116, 0, 115, 0, 121, 0, 122, 0, 116, 0, 123, 0, 117, 0, 116, 0, 122, 0, 123, 0, 117, 0, 181, 0, 175, 0, 117, 0, 123, 0, 181, 0, 118, 0, 130, 0, 119, 0, 118, 0, 125, 0, 130, 0, 119, 0, 134, 0, 120, 0, 119, 0, 130, 0, 134, 0, 120, 0, 138, 0, 121, 0, 120, 0, 134, 0, 138, 0, 121, 0, 142, 0, 122, 0, 121, 0, 138, 0, 142, 0, 122, 0, 146, 0, 123, 0, 122, 0, 142, 0, 146, 0, 123, 0, 188, 0, 181, 0, 123, 0, 146, 0, 188, 0, 113, 1, 140, 1, 137, 1, 113, 1, 58, 1, 140, 1, 114, 1, 69, 1, 118, 1, 114, 1, 65, 1, 69, 1, 144, 1, 72, 1, 120, 1, 144, 1, 148, 1, 72, 1, 120, 1, 152, 1, 150, 1, 120, 1, 72, 1, 152, 1, 122, 1, 78, 1, 126, 1, 122, 1, 74, 1, 78, 1, 157, 1, 80, 1, 127, 1, 157, 1, 160, 1, 80, 1, 127, 0, 151, 0, 131, 0, 127, 0, 150, 0, 151, 0, 131, 0, 152, 0, 135, 0, 131, 0, 151, 0, 152, 0, 135, 0, 153, 0, 140, 0, 135, 0, 152, 0, 153, 0, 140, 0, 154, 0, 144, 0, 140, 0, 153, 0, 154, 0, 144, 0, 155, 0, 148, 0, 144, 0, 154, 0, 155, 0, 148, 0, 212, 0, 190, 0, 148, 0, 155, 0, 212, 0, 150, 0, 84, 1, 151, 0, 150, 0, 157, 0, 84, 1, 151, 0, 86, 1, 152, 0, 151, 0, 84, 1, 86, 1, 152, 0, 88, 1, 153, 0, 152, 0, 86, 1, 88, 1, 153, 0, 91, 1, 154, 0, 153, 0, 88, 1, 91, 1, 154, 0, 93, 1, 155, 0, 154, 0, 91, 1, 93, 1, 155, 0, 224, 0, 212, 0, 155, 0, 93, 1, 224, 0, 63, 1, 55, 1, 159, 0, 63, 1, 56, 1, 55, 1, 159, 0, 54, 1, 161, 0, 159, 0, 55, 1, 54, 1, 161, 0, 53, 1, 163, 0, 161, 0, 54, 1, 53, 1, 163, 0, 52, 1, 166, 0, 163, 0, 53, 1, 52, 1, 166, 0, 51, 1, 168, 0, 166, 0, 52, 1, 51, 1, 168, 0, 50, 1, 95, 1, 168, 0, 51, 1, 50, 1, 169, 0, 176, 0, 170, 0, 169, 0, 175, 0, 176, 0, 170, 0, 177, 0, 171, 0, 170, 0, 176, 0, 177, 0, 171, 0, 178, 0, 172, 0, 171, 0, 177, 0, 178, 0, 172, 0, 179, 0, 173, 0, 172, 0, 178, 0, 179, 0, 173, 0, 180, 0, 174, 0, 173, 0, 179, 0, 180, 0, 174, 0, 6, 0, 0, 0, 174, 0, 180, 0, 6, 0, 175, 0, 182, 0, 176, 0, 175, 0, 181, 0, 182, 0, 176, 0, 183, 0, 177, 0, 176, 0, 182, 0, 183, 0, 177, 0, 184, 0, 178, 0, 177, 0, 183, 0, 184, 0, 178, 0, 185, 0, 179, 0, 178, 0, 184, 0, 185, 0, 179, 0, 186, 0, 180, 0, 179, 0, 185, 0, 186, 0, 180, 0, 12, 0, 6, 0, 180, 0, 186, 0, 12, 0, 181, 0, 193, 0, 182, 0, 181, 0, 188, 0, 193, 0, 182, 0, 196, 0, 183, 0, 182, 0, 193, 0, 196, 0, 183, 0, 200, 0, 184, 0, 183, 0, 196, 0, 200, 0, 184, 0, 205, 0, 185, 0, 184, 0, 200, 0, 205, 0, 185, 0, 210, 0, 186, 0, 185, 0, 205, 0, 210, 0, 186, 0, 19, 0, 12, 0, 186, 0, 210, 0, 19, 0, 127, 1, 194, 0, 128, 1, 127, 1, 80, 1, 194, 0, 128, 1, 197, 0, 129, 1, 128, 1, 194, 0, 197, 0, 129, 1, 184, 1, 182, 1, 129, 1, 197, 0, 184, 1, 132, 1, 208, 0, 135, 1, 132, 1, 203, 0, 208, 0, 187, 1, 211, 0, 136, 1, 187, 1, 189, 1, 211, 0, 136, 1, 20, 0, 97, 1, 136, 1, 211, 0, 20, 0, 80, 1, 214, 0, 194, 0, 80, 1, 82, 1, 214, 0, 194, 0, 215, 0, 197, 0, 194, 0, 214, 0, 215, 0, 197, 0, 193, 1, 184, 1, 197, 0, 215, 0, 193, 1, 202, 0, 221, 0, 207, 0, 202, 0, 218, 0, 221, 0, 189, 1, 222, 0, 211, 0, 189, 1, 196, 1, 222, 0, 211, 0, 36, 0, 20, 0, 211, 0, 222, 0, 36, 0, 82, 1, 226, 0, 214, 0, 82, 1, 95, 1, 226, 0, 214, 0, 227, 0, 215, 0, 214, 0, 226, 0, 227, 0, 215, 0, 229, 0, 193, 1, 215, 0, 227, 0, 229, 0, 192, 1, 230, 0, 196, 1, 192, 1, 228, 0, 230, 0, 196, 1, 231, 0, 222, 0, 196, 1, 230, 0, 231, 0, 222, 0, 42, 0, 36, 0, 222, 0, 231, 0, 42, 0, 95, 1, 43, 1, 226, 0, 95, 1, 50, 1, 43, 1, 226, 0, 36, 1, 227, 0, 226, 0, 43, 1, 36, 1, 227, 0, 23, 1, 229, 0, 227, 0, 36, 1, 23, 1, 228, 0, 15, 1, 230, 0, 228, 0, 22, 1, 15, 1, 230, 0, 8, 1, 231, 0, 230, 0, 15, 1, 8, 1, 231, 0, 1, 1, 42, 0, 231, 0, 8, 1, 1, 1, 169, 0, 232, 0, 111, 0, 169, 0, 170, 0, 232, 0, 111, 0, 233, 0, 110, 0, 111, 0, 232, 0, 233, 0, 110, 0, 234, 0, 109, 0, 110, 0, 233, 0, 234, 0, 109, 0, 235, 0, 108, 0, 109, 0, 234, 0, 235, 0, 108, 0, 236, 0, 107, 0, 108, 0, 235, 0, 236, 0, 107, 0, 53, 0, 106, 0, 107, 0, 236, 0, 53, 0, 170, 0, 237, 0, 232, 0, 170, 0, 171, 0, 237, 0, 232, 0, 238, 0, 233, 0, 232, 0, 237, 0, 238, 0, 233, 0, 239, 0, 234, 0, 233, 0, 238, 0, 239, 0, 234, 0, 240, 0, 235, 0, 234, 0, 239, 0, 240, 0, 235, 0, 241, 0, 236, 0, 235, 0, 240, 0, 241, 0, 236, 0, 52, 0, 53, 0, 236, 0, 241, 0, 52, 0, 171, 0, 242, 0, 237, 0, 171, 0, 172, 0, 242, 0, 237, 0, 243, 0, 238, 0, 237, 0, 242, 0, 243, 0, 238, 0, 244, 0, 239, 0, 238, 0, 243, 0, 244, 0, 239, 0, 245, 0, 240, 0, 239, 0, 244, 0, 245, 0, 240, 0, 246, 0, 241, 0, 240, 0, 245, 0, 246, 0, 241, 0, 51, 0, 52, 0, 241, 0, 246, 0, 51, 0, 172, 0, 247, 0, 242, 0, 172, 0, 173, 0, 247, 0, 242, 0, 248, 0, 243, 0, 242, 0, 247, 0, 248, 0, 243, 0, 249, 0, 244, 0, 243, 0, 248, 0, 249, 0, 244, 0, 250, 0, 245, 0, 244, 0, 249, 0, 250, 0, 245, 0, 251, 0, 246, 0, 245, 0, 250, 0, 251, 0, 246, 0, 50, 0, 51, 0, 246, 0, 251, 0, 50, 0, 173, 0, 252, 0, 247, 0, 173, 0, 174, 0, 252, 0, 247, 0, 253, 0, 248, 0, 247, 0, 252, 0, 253, 0, 248, 0, 254, 0, 249, 0, 248, 0, 253, 0, 254, 0, 249, 0, 255, 0, 250, 0, 249, 0, 254, 0, 255, 0, 250, 0, 0, 1, 251, 0, 250, 0, 255, 0, 0, 1, 251, 0, 49, 0, 50, 0, 251, 0, 0, 1, 49, 0, 174, 0, 1, 0, 252, 0, 174, 0, 0, 0, 1, 0, 252, 0, 2, 0, 253, 0, 252, 0, 1, 0, 2, 0, 253, 0, 3, 0, 254, 0, 253, 0, 2, 0, 3, 0, 254, 0, 4, 0, 255, 0, 254, 0, 3, 0, 4, 0, 255, 0, 5, 0, 0, 1, 255, 0, 4, 0, 5, 0, 0, 1, 48, 0, 49, 0, 0, 1, 5, 0, 48, 0, 1, 1, 9, 1, 2, 1, 1, 1, 8, 1, 9, 1, 2, 1, 10, 1, 3, 1, 2, 1, 9, 1, 10, 1, 3, 1, 11, 1, 4, 1, 3, 1, 10, 1, 11, 1, 4, 1, 12, 1, 5, 1, 4, 1, 11, 1, 12, 1, 5, 1, 13, 1, 6, 1, 5, 1, 12, 1, 13, 1, 6, 1, 14, 1, 7, 1, 6, 1, 13, 1, 14, 1, 8, 1, 16, 1, 9, 1, 8, 1, 15, 1, 16, 1, 9, 1, 17, 1, 10, 1, 9, 1, 16, 1, 17, 1, 10, 1, 18, 1, 11, 1, 10, 1, 17, 1, 18, 1, 11, 1, 19, 1, 12, 1, 11, 1, 18, 1, 19, 1, 12, 1, 20, 1, 13, 1, 12, 1, 19, 1, 20, 1, 13, 1, 21, 1, 14, 1, 13, 1, 20, 1, 21, 1, 15, 1, 24, 1, 16, 1, 15, 1, 22, 1, 24, 1, 16, 1, 26, 1, 17, 1, 16, 1, 24, 1, 26, 1, 17, 1, 28, 1, 18, 1, 17, 1, 26, 1, 28, 1, 18, 1, 30, 1, 19, 1, 18, 1, 28, 1, 30, 1, 19, 1, 32, 1, 20, 1, 19, 1, 30, 1, 32, 1, 20, 1, 34, 1, 21, 1, 20, 1, 32, 1, 34, 1, 23, 1, 37, 1, 25, 1, 23, 1, 36, 1, 37, 1, 25, 1, 38, 1, 27, 1, 25, 1, 37, 1, 38, 1, 27, 1, 39, 1, 29, 1, 27, 1, 38, 1, 39, 1, 29, 1, 40, 1, 31, 1, 29, 1, 39, 1, 40, 1, 31, 1, 41, 1, 33, 1, 31, 1, 40, 1, 41, 1, 33, 1, 42, 1, 35, 1, 33, 1, 41, 1, 42, 1, 36, 1, 44, 1, 37, 1, 36, 1, 43, 1, 44, 1, 37, 1, 45, 1, 38, 1, 37, 1, 44, 1, 45, 1, 38, 1, 46, 1, 39, 1, 38, 1, 45, 1, 46, 1, 39, 1, 47, 1, 40, 1, 39, 1, 46, 1, 47, 1, 40, 1, 48, 1, 41, 1, 40, 1, 47, 1, 48, 1, 41, 1, 49, 1, 42, 1, 41, 1, 48, 1, 49, 1, 43, 1, 51, 1, 44, 1, 43, 1, 50, 1, 51, 1, 44, 1, 52, 1, 45, 1, 44, 1, 51, 1, 52, 1, 45, 1, 53, 1, 46, 1, 45, 1, 52, 1, 53, 1, 46, 1, 54, 1, 47, 1, 46, 1, 53, 1, 54, 1, 47, 1, 55, 1, 48, 1, 47, 1, 54, 1, 55, 1, 48, 1, 56, 1, 49, 1, 48, 1, 55, 1, 56, 1, 126, 0, 60, 1, 149, 0, 126, 0, 57, 1, 60, 1, 149, 0, 62, 1, 156, 0, 149, 0, 60, 1, 62, 1, 132, 0, 59, 1, 128, 0, 132, 0, 141, 1, 59, 1, 136, 0, 141, 1, 132, 0, 136, 0, 147, 1, 141, 1, 139, 0, 147, 1, 136, 0, 139, 0, 71, 1, 147, 1, 143, 0, 71, 1, 139, 0, 143, 0, 153, 1, 71, 1, 147, 0, 153, 1, 143, 0, 147, 0, 159, 1, 153, 1, 189, 0, 159, 1, 147, 0, 189, 0, 79, 1, 159, 1, 213, 0, 81, 1, 191, 0, 213, 0, 83, 1, 81, 1, 158, 0, 160, 0, 85, 1, 158, 0, 64, 1, 160, 0, 85, 1, 162, 0, 87, 1, 85, 1, 160, 0, 162, 0, 87, 1, 164, 0, 89, 1, 87, 1, 162, 0, 164, 0, 89, 1, 165, 0, 90, 1, 89, 1, 164, 0, 165, 0, 90, 1, 167, 0, 92, 1, 90, 1, 165, 0, 167, 0, 225, 0, 83, 1, 213, 0, 225, 0, 96, 1, 83, 1, 92, 1, 94, 1, 223, 0, 92, 1, 167, 0, 94, 1, 209, 0, 97, 1, 18, 0, 209, 0, 136, 1, 97, 1, 204, 0, 136, 1, 209, 0, 204, 0, 187, 1, 136, 1, 198, 0, 187, 1, 204, 0, 198, 0, 181, 1, 187, 1, 195, 0, 182, 1, 199, 0, 195, 0, 129, 1, 182, 1, 192, 0, 129, 1, 195, 0, 192, 0, 128, 1, 129, 1, 187, 0, 128, 1, 192, 0, 187, 0, 127, 1, 128, 1, 145, 0, 127, 1, 187, 0, 145, 0, 157, 1, 127, 1, 141, 0, 157, 1, 145, 0, 141, 0, 150, 1, 157, 1, 137, 0, 150, 1, 141, 0, 137, 0, 120, 1, 150, 1, 133, 0, 120, 1, 137, 0, 133, 0, 144, 1, 120, 1, 129, 0, 144, 1, 133, 0, 129, 0, 137, 1, 144, 1, 124, 0, 137, 1, 129, 0, 124, 0, 113, 1, 137, 1, 86, 0, 113, 1, 124, 0, 86, 0, 112, 1, 113, 1, 83, 0, 112, 1, 86, 0, 83, 0, 111, 1, 112, 1, 78, 0, 111, 1, 83, 0, 78, 0, 167, 1, 111, 1, 72, 0, 166, 1, 77, 0, 72, 0, 161, 1, 166, 1, 69, 0, 161, 1, 72, 0, 69, 0, 104, 1, 161, 1, 66, 0, 104, 1, 69, 0, 66, 0, 103, 1, 104, 1, 33, 0, 103, 1, 66, 0, 33, 0, 102, 1, 103, 1, 30, 0, 102, 1, 33, 0, 30, 0, 101, 1, 102, 1, 27, 0, 101, 1, 30, 0, 27, 0, 100, 1, 101, 1, 24, 0, 100, 1, 27, 0, 24, 0, 99, 1, 100, 1, 21, 0, 99, 1, 24, 0, 21, 0, 98, 1, 99, 1, 18, 0, 98, 1, 21, 0, 18, 0, 97, 1, 98, 1, 116, 1, 142, 1, 67, 1, 116, 1, 139, 1, 142, 1, 68, 1, 143, 1, 117, 1, 68, 1, 146, 1, 143, 1, 66, 1, 147, 1, 70, 1, 66, 1, 141, 1, 147, 1, 123, 1, 154, 1, 75, 1, 123, 1, 151, 1, 154, 1, 76, 1, 155, 1, 124, 1, 76, 1, 158, 1, 155, 1, 73, 1, 159, 1, 77, 1, 73, 1, 153, 1, 159, 1, 125, 1, 149, 1, 121, 1, 125, 1, 156, 1, 149, 1, 119, 1, 138, 1, 115, 1, 119, 1, 145, 1, 138, 1, 107, 1, 165, 1, 76, 0, 107, 1, 163, 1, 165, 1, 82, 0, 168, 1, 109, 1, 82, 0, 171, 1, 168, 1, 76, 0, 174, 1, 93, 0, 76, 0, 165, 1, 174, 1, 95, 0, 171, 1, 82, 0, 95, 0, 177, 1, 171, 1, 92, 0, 178, 1, 96, 0, 92, 0, 173, 1, 178, 1, 131, 1, 183, 1, 201, 0, 131, 1, 180, 1, 183, 1, 206, 0, 185, 1, 133, 1, 206, 0, 188, 1, 185, 1, 201, 0, 191, 1, 217, 0, 201, 0, 183, 1, 191, 1, 219, 0, 188, 1, 206, 0, 219, 0, 194, 1, 188, 1, 216, 0, 195, 1, 220, 0, 216, 0, 190, 1, 195, 1, 134, 1, 179, 1, 130, 1, 134, 1, 186, 1, 179, 1, 110, 1, 162, 1, 106, 1, 110, 1, 169, 1, 162, 1 ),
"blend_shape_data": [  ],
"format": 97559,
"index_count": 1800,
"material": ExtResource( 1 ),
"primitive": 4,
"skeleton_aabb": [  ],
"vertex_count": 453
}

[sub_resource type="AnimationNodeAnimation" id=2]
animation = "Attack"

[sub_resource type="AnimationNodeOneShot" id=3]
autorestart = true
autorestart_delay = 0.1

[sub_resource type="AnimationNodeOneShot" id=19]

[sub_resource type="AnimationNodeAnimation" id=18]
animation = "Hurt"

[sub_resource type="AnimationNodeAnimation" id=4]
animation = "Jump"

[sub_resource type="AnimationNodeBlendTree" id=5]
graph_offset = Vector2( 35, 111 )
nodes/AirborneAttack/node = SubResource( 2 )
nodes/AirborneAttack/position = Vector2( 160, 220 )
nodes/Attack/node = SubResource( 3 )
nodes/Attack/position = Vector2( 400, 120 )
nodes/Hurt/node = SubResource( 19 )
nodes/Hurt/position = Vector2( 660, 120 )
nodes/HurtAirbone/node = SubResource( 18 )
nodes/HurtAirbone/position = Vector2( 440, 300 )
nodes/Jump/node = SubResource( 4 )
nodes/Jump/position = Vector2( 160, 100 )
nodes/output/position = Vector2( 920, 120 )
node_connections = [ "output", 0, "Hurt", "Attack", 0, "Jump", "Attack", 1, "AirborneAttack", "Hurt", 0, "Attack", "Hurt", 1, "HurtAirbone" ]

[sub_resource type="AnimationNodeOneShot" id=6]
autorestart_delay = 0.2

[sub_resource type="AnimationNodeAnimation" id=7]
animation = "Attack"

[sub_resource type="AnimationNodeOneShot" id=17]

[sub_resource type="AnimationNodeAnimation" id=16]
animation = "Hurt"

[sub_resource type="AnimationNodeAnimation" id=8]
animation = "Running"

[sub_resource type="AnimationNodeBlendTree" id=9]
graph_offset = Vector2( -186, 216 )
nodes/Attack/node = SubResource( 6 )
nodes/Attack/position = Vector2( 60, 200 )
nodes/GroundedAttack/node = SubResource( 7 )
nodes/GroundedAttack/position = Vector2( -200, 280 )
nodes/Hurt/node = SubResource( 17 )
nodes/Hurt/position = Vector2( 300, 200 )
nodes/HurtGrounded/node = SubResource( 16 )
nodes/HurtGrounded/position = Vector2( 120, 400 )
nodes/Running/node = SubResource( 8 )
nodes/Running/position = Vector2( -180, 120 )
nodes/output/position = Vector2( 500, 180 )
node_connections = [ "output", 0, "Hurt", "Attack", 0, "Running", "Attack", 1, "GroundedAttack", "Hurt", 0, "Attack", "Hurt", 1, "HurtGrounded" ]

[sub_resource type="AnimationNodeStateMachineTransition" id=10]

[sub_resource type="AnimationNodeStateMachineTransition" id=11]
switch_mode = 2
auto_advance = true
xfade_time = 0.03

[sub_resource type="AnimationNodeStateMachine" id=12]
states/Airborne/node = SubResource( 5 )
states/Airborne/position = Vector2( 517, 59 )
states/Grounded/node = SubResource( 9 )
states/Grounded/position = Vector2( 301, 69 )
transitions = [ "Grounded", "Airborne", SubResource( 10 ), "Airborne", "Grounded", SubResource( 11 ) ]
start_node = "Grounded"
graph_offset = Vector2( -18, -44 )

[sub_resource type="AnimationNodeStateMachinePlayback" id=13]

[sub_resource type="CapsuleShape" id=14]
radius = 0.500772
height = 0.498245

[sub_resource type="BoxShape" id=15]
extents = Vector3( 0.773748, 1.0059, 3.40976 )

[node name="TestRunner" type="KinematicBody"]
collision_layer = 2
collision_mask = 7
script = ExtResource( 5 )

[node name="Armature" type="Spatial" parent="."]
transform = Transform( -1, 0, -8.74228e-08, 0, 1, 0, 8.74228e-08, 0, -1, 0, 0, 0 )

[node name="Master" type="Spatial" parent="Armature"]
transform = Transform( 1, -3.04283e-16, 0, 0, 0, 1, -3.04283e-16, -1, 0, 0, 0, 0 )

[node name="Root" type="Spatial" parent="Armature/Master"]
transform = Transform( 1, -1.58308e-17, -3.02745e-16, -3.00131e-16, -0.192498, -0.981297, -4.27431e-17, 0.981297, -0.192498, -3.24914e-18, -0.010678, 0.0242324 )

[node name="BaseCharacter" type="MeshInstance" parent="Armature/Master/Root"]
transform = Transform( 1, 0, 0, 0, 1, 0, 0, 0, 1, 0, 0, -0.010678 )
mesh = SubResource( 1 )
material/0 = null

[node name="AnimationTree" type="AnimationTree" parent="."]
tree_root = SubResource( 12 )
anim_player = NodePath("../AnimationPlayer")
active = true
parameters/playback = SubResource( 13 )
parameters/Airborne/Attack/active = false
parameters/Airborne/Hurt/active = false
parameters/Grounded/Attack/active = false
parameters/Grounded/Hurt/active = false

[node name="AnimationPlayer" type="AnimationPlayer" parent="."]
autoplay = "Idle"
anims/Attack = ExtResource( 6 )
anims/Finished = ExtResource( 2 )
anims/Hurt = ExtResource( 8 )
anims/Idle = ExtResource( 3 )
anims/Jump = ExtResource( 9 )
anims/Ready = ExtResource( 4 )
anims/Running = ExtResource( 7 )

[node name="CollisionShape" type="CollisionShape" parent="."]
transform = Transform( 1, 0, 0, 0, -4.37114e-08, 1, 0, -1, -4.37114e-08, 0, 0.755407, 0 )
shape = SubResource( 14 )

[node name="AttackArea" type="Area" parent="."]
monitorable = false
collision_layer = 4
collision_mask = 4

[node name="CollisionShape" type="CollisionShape" parent="AttackArea"]
transform = Transform( 1, 0, 0, 0, 1, 0, 0, 0, 1, 0, 0.82633, -4.53538 )
shape = SubResource( 15 )

[node name="InvincibilityTimer" type="Timer" parent="."]
one_shot = true

[connection signal="timeout" from="InvincibilityTimer" to="." method="_on_InvincibilityTimer_timeout"]
